一 8375236130
不 7052620611
人 5845596879
有 5790703730
是 4976607740
大 4371109243
我 4347113024
国 3749328715
國 3749328715
中 3738049977
个 3642839872
個 3642839872
箇 3642839872
发 3472143808
發 3472143808
髮 3472143808
上 3182586574
时 3147084162
時 3147084162
这 3141624425
這 3141624425
下 3012062934
会 2991771440
會 2991771440
在 2913617831
了 2844871855
瞭 2844871855
用 2812531456
来 2802542206
來 2802542206
生 2792774171
业 2770068195
業 2770068195
要 2620747790
学 2607906938
學 2607906938
作 2584299763
的 2582236824
出 2572891754
齣 2572891754
以 2558339594
可 2554675984
到 2511275279
公 2502937385
为 2461859457
爲 2461859457
行 2422915725
能 2360655839
理 2308994466
本 2277295748
电 2271508684
電 2271508684
自 2252043364
家 2209990833
傢 2209990833
地 2186198071
子 2173374501
网 2161668300
網 2161668300
文 2141563905
他 2124495765
你 2114412926
工 2109607668
经 2065200369
經 2065200369
机 2039469404
機 2039469404
方 1996449239
新 1991622406
们 1960103441
們 1960103441
品 1948120694
动 1947100121
動 1947100121
成 1922413520
产 1907451517
產 1907451517
心 1896803699
主 1870011447
分 1862434591
过 1853327731
過 1853327731
间 1845279152
間 1845279152
件 1829372361
信 1817567878
么 1795136517
麼 1795136517
好 1776979340
开 1774621955
開 1774621955
现 1757434080
現 1757434080
面 1752779580
麪 1752779580
看 1748791576
法 1745499290
多 1741209447
说 1736237033
說 1736237033
关 1724043761
關 1724043761
点 1718447465
點 1718447465
天 1712326294
小 1695738870
手 1617682959
全 1605124866
得 1604445979
司 1584927738
就 1549405950
情 1541193918
最 1529002805
进 1526812852
進 1526812852
年 1500716877
实 1489022654
實 1489022654
系 1470336891
係 1470336891
繫 1470336891
务 1462650813
務 1462650813
高 1458499624
内 1452941799
內 1452941799
没 1446330799
沒 1446330799
体 1438505219
體 1438505219
力 1436407207
对 1431816430
對 1431816430
道 1431240578
事 1430977519
定 1410914122
于 1409754362
於 1409754362
资 1408590573
資 1408590573
所 1408542140
如 1403338928
之 1383614528
名 1372569439
后 1371027589
後 1371027589
无 1364196391
無 1364196391
然 1340825292
部 1336218007
管 1320607583
日 1306851380
数 1305262386
數 1305262386
表 1288050664
錶 1288050664
者 1286695050
意 1283075587
同 1275529626
衕 1275529626
相 1272383343
员 1270735623
員 1270735623
息 1263858344
通 1248477431
前 1246946075
设 1241539156
設 1241539156
性 1238070968
场 1236834061
場 1236834061
市 1236364975
加 1235740407
载 1220334988
載 1220334988
合 1215008982
閤 1215008982
里 1212713416
裏 1212713416
制 1191003896
製 1191003896
论 1188389576
論 1188389576
注 1170777335
註 1170777335
那 1164166169
也 1162351595
题 1162046980
題 1162046980
想 1151284890
着 1150354619
还 1143960793
還 1143960793
明 1134384455
话 1117993715
話 1117993715
教 1113758303
重 1109929546
入 1109642511
长 1106536733
長 1106536733
美 1104912237
女 1085713527
服 1082132876
外 1075884392
技 1074277173
起 1072302995
提 1071582460
位 1061324338
只 1055642345
隻 1055642345
祇 1055642345
种 1053099090
種 1053099090
化 1047011200
计 1039081995
計 1039081995
回 1035906790
迴 1035906790
建 1034506340
商 1033458476
去 1032121942
都 1029160938
限 1026016252
程 1019931448
当 1012118235
當 1012118235
噹 1012118235
问 1009821077
問 1009821077
第 1008125158
什 1007276467
民 1004193995
果 1002796373
目 1001433225
期 998502043
其 990102211
式 980418931
价 979734874
價 979734874
度 972448279
身 970495282
三 956098691
应 954257921
應 954257921
保 952649659
展 950602116
专 946640283
專 946640283
站 945124053
线 941862288
線 941862288
正 941131362
门 940928777
門 940928777
知 938614554
次 929787899
很 927491630
版 926712391
联 919966582
聯 919966582
金 918997302
容 917810938
级 916777358
級 916777358
报 901091662
報 901091662
车 898349472
車 898349472
头 897854503
頭 897854503
术 896400627
術 896400627
朮 896400627
水 893315143
代 885192437
更 884045796
别 881631348
別 881631348
彆 881631348
量 877494475
影 873316479
样 870402561
樣 870402561
软 869349382
軟 869349382
统 866888057
統 866888057
己 864069753
接 859007347
物 857556129
费 849796544
費 849796544
十 845572356
图 842007052
圖 842007052
安 841515407
此 840197591
任 839758389
格 833254867
活 831801839
些 828035644
感 826411932
册 824557389
冊 824557389
权 822137295
權 822137295
乐 820312888
樂 820312888
解 820143502
而 817700317
因 816074342
使 815168208
政 814226130
片 795322534
色 793416485
特 792110261
真 788025811
企 784754951
区 780560770
區 780560770
标 780007150
標 780007150
常 779231824
平 775255683
收 774564751
记 772663997
記 772663997
交 770310948
两 765354487
兩 765354487
海 765164163
口 761834977
精 756760600
科 756380449
告 756032505
传 755274204
傳 755274204
利 754645659
广 751825919
廣 751825919
原 749437205
气 749078756
氣 749078756
已 744237621
游 739961176
遊 739961176
打 739786542
华 739398639
華 739398639
书 739149730
書 739149730
声 736225232
聲 736225232
二 735066418
类 731584095
類 731584095
请 725113129
請 725113129
东 716208682
東 716208682
器 716149133
装 710612907
裝 710612907
布 709726123
佈 709726123
快 707501204
户 705944050
戶 705944050
社 702521634
老 700340808
等 699721317
见 697985527
見 697985527
单 697474792
單 697474792
流 693333395
结 693285396
結 693285396
比 692072327
音 686863788
规 681154680
規 681154680
她 679470200
世 675866106
光 675231127
运 674301350
運 674301350
求 673487220
处 669730414
處 669730414
持 667869946
风 666862054
風 666862054
视 666284898
視 666284898
北 664244774
基 662363469
何 661410584
放 660902256
查 658158718
西 656250718
总 655121541
總 655121541
章 653509776
言 652528456
各 645683340
供 639700945
路 634666087
示 633130760
具 632035425
爱 630305596
愛 630305596
证 629109049
證 629109049
语 628183144
語 628183144
强 620766686
強 620766686
页 619550065
頁 619550065
字 615705297
先 614948511
考 613770301
立 609517912
料 606784282
将 603664826
將 603664826
推 602612611
房 601022650
给 598366007
給 598366007
少 596277018
育 594625906
界 592867436
源 592116509
认 591462459
認 591462459
质 590637609
質 590637609
直 588771763
师 587932004
師 587932004
备 587207526
備 587207526
击 585445911
擊 585445911
营 584875947
營 584875947
共 583572213
客 581630846
几 581621589
幾 581621589
機 581621589
转 578647741
轉 578647741
坛 574800533
壇 574800533
罈 574800533
试 572972630
試 572972630
复 571941862
復 571941862
複 571941862
覆 571941862
完 571755444
望 571740669
您 571171062
空 571132865
战 570164126
戰 570164126
组 563746433
組 563746433
台 558180416
臺 558180416
檯 558180416
颱 558180416
免 557263109
导 557095741
導 557095741
功 555707222
才 554631439
纔 554631439
评 554562745
評 554562745
神 553535756
选 552614694
選 552614694
调 548271818
調 548271818
简 546592255
簡 546592255
型 541075631
受 540691320
眼 539777946
办 539536040
辦 539536040
变 537500647
變 537500647
做 535967519
际 535825309
際 535825309
南 535528555
友 533206487
指 528322577
录 523820059
錄 523820059
彔 523820059
院 522998944
改 520874243
首 520645096
介 520294307
今 519346584
走 514926374
歌 513696795
四 512523666
支 511211475
觉 510785569
覺 510785569
据 509192996
據 509192996
置 508734304
欢 504504530
歡 504504530
每 502931958
集 502394936
络 501095384
絡 501095384
节 500606711
節 500606711
准 500461780
準 500461780
码 495176547
碼 495176547
积 493920342
積 493920342
京 492740123
称 491538578
稱 491538578
需 489882312
投 488673625
易 487526486
号 486605316
號 486605316
向 485326853
嚮 485326853
曏 485326853
星 484448795
造 483728477
和 480200826
深 480098776
济 479572729
濟 479572729
项 478553274
項 478553274
整 478390367
怎 477959471
带 477441322
帶 477441322
清 475649508
研 473840631
让 472492405
讓 472492405
由 472089824
责 471705919
責 471705919
决 471681554
決 471681554
环 471178201
環 471178201
速 468215766
效 467714189
形 466503137
再 463358765
创 462395441
創 462395441
销 458664144
銷 458664144
球 457190808
热 455785169
熱 455785169
细 455702813
細 455702813
笑 454777222
并 454735459
並 454735459
併 454735459
观 454571816
觀 454571816
议 453741364
議 453741364
候 453525796
留 450835984
但 450581750
显 450504116
顯 450504116
花 449811996
校 449452850
算 446323344
存 445986529
城 443665024
难 441965909
難 441965909
条 441704753
條 441704753
职 438712023
職 438712023
列 436136845
山 435104615
白 435103412
月 433710410
反 433617911
听 432060221
聽 432060221
增 431888031
思 431700875
包 429337182
态 428258670
態 428258670
步 426254308
英 426154368
住 425466518
儿 424550258
兒 424550258
股 424349576
消 424152759
达 424143651
達 424143651
编 423939413
編 423939413
戏 421901177
戲 421901177
及 421164295
太 418920110
取 418834956
境 417793173
男 415414122
引 413896267
连 411638989
連 411638989
五 410986952
确 409597849
確 409597849
许 409500612
許 409500612
军 409445551
軍 409445551
非 409050521
案 408883391
识 404876890
識 404876890
该 404332494
該 404332494
购 402118129
購 402118129
谢 401856008
謝 401856008
址 400640726
医 400215942
醫 400215942
队 399718577
隊 399718577
参 398110731
參 398110731
蔘 398110731
密 397311422
士 397034842
帖 396701441
验 394684708
驗 394684708
治 391402269
始 390536849
州 389748705
像 389220113
模 388835486
领 387334301
領 387334301
究 386150013
边 385633702
邊 385633702
元 385202454
款 384740442
读 384061736
讀 384061736
失 383113478
局 382952611
侷 382952611
离 381774437
離 381774437
况 380602909
況 380602909
必 379812692
找 379641777
把 378948543
售 374571510
万 373534681
萬 373534681
近 371544585
未 371269977
超 370723690
优 370253241
優 370253241
护 369270120
護 369270120
象 367556297
登 365807977
从 365716680
從 365716680
团 365139649
團 365139649
糰 365139649
喜 364950402
委 363386812
习 362593136
習 362593136
马 359584838
馬 359584838
它 358296534
历 357660494
歷 357660494
曆 357660494
病 357295026
律 355437946
构 354961520
構 354961520
配 354851596
修 352918673
脩 352918673
死 351899372
除 349942879
火 348662287
轻 346962212
輕 346962212
闻 346268348
聞 346268348
江 345100075
防 344251884
义 344072318
義 344072318
命 344032009
至 342475412
施 342012795
助 341700890
状 340956307
狀 340956307
便 340712070
照 337514386
赛 337087922
賽 337087922
干 331491425
幹 331491425
乾 331491425
百 330994106
远 330957299
遠 330957299
招 329779842
农 328983491
農 328983491
脑 326245071
腦 326245071
采 323280662
採 323280662
寀 323280662
错 323028906
錯 323028906
满 323024987
滿 323024987
演 322863824
较 322002542
較 322002542
续 321792971
續 321792971
周 321578559
週 321578559
賙 321578559
彩 320839130
綵 320839130
即 319363932
索 319267396
极 319092404
極 319092404
孩 317059549
斯 316937444
份 316227121
足 315605586
频 313127056
頻 313127056
压 311424105
壓 311424105
详 310432611
詳 310432611
随 309836871
隨 309836871
又 309555486
测 309181714
測 309181714
材 308943014
划 306463143
劃 306463143
落 306374869
或 305681769
切 304960177
与 304066773
與 304066773
钱 304000234
錢 304000234
势 303163117
勢 303163117
曲 302392075
麴 302392075
低 300339222
送 300020410
写 299786263
寫 299786263
预 299058664
預 299058664
争 297000059
爭 297000059
票 296951781
控 295943112
值 294855953
根 294610322
奇 294478807
终 294315915
終 294315915
药 294053272
藥 294053272
葯 294053272
排 293838128
张 293479921
張 293479921
哈 293119256
飞 290985925
飛 290985925
板 290896961
闆 290896961
贴 289350366
貼 289350366
荐 287187276
薦 287187276
邮 286581433
郵 286581433
段 286487359
越 286210145
尔 284732122
爾 284732122
红 282532075
紅 282532075
食 281912151
青 281170772
双 281049696
雙 281049696
断 280857412
斷 280857412
范 280388580
範 280388580
维 279645533
維 279645533
亲 279205852
親 279205852
属 278553078
屬 278553078
破 277383414
往 277100456
藏 276238078
辑 276033603
輯 276033603
财 275949757
財 275949757
率 275710328
园 275651437
園 275651437
搜 274515891
蒐 274515891
织 274296018
織 274296018
询 273756472
詢 273756472
帮 272045173
幫 272045173
牌 271901579
且 271311620
盘 270739810
盤 270739810
众 270045007
衆 270045007
迎 269842451
突 269723953
检 269610439
檢 269610439
适 269348811
適 269348811
绝 267833929
絕 267833929
故 267757451
拉 267214892
序 266922481
楼 266734196
樓 266734196
德 263854481
则 263410774
則 263410774
府 262712280
党 262246428
黨 262246428
监 261698229
監 261698229
店 261653247
买 261553994
買 261553994
货 260159275
貨 260159275
朋 259738686
素 259724157
黑 259161581
克 257572599
剋 257572599
阅 257360834
閱 257360834
险 256877839
險 256877839
宝 256096887
寶 256096887
览 256018968
覽 256018968
响 254998363
響 254998363
室 252076390
威 252075678
六 250775723
享 250396144
艺 248836827
藝 248836827
早 248765869
香 248615058
择 248109044
擇 248109044
播 247240043
否 247195651
阳 246458089
陽 246458089
绍 246237245
紹 246237245
半 246127565
激 245922157
协 244966451
協 244966451
旅 244223275
输 244069771
輸 244069771
另 244059057
尽 243720553
盡 243720553
儘 243720553
授 243398833
油 243035758
诉 242023395
訴 242023395
举 240850607
舉 240850607
血 240348347
吃 240086754
换 238764262
換 238764262
健 238381643
印 238216011
课 238156717
課 238156717
念 237883990
唸 237883990
围 237698432
圍 237698432
约 237394432
約 237394432
底 236348953
王 236063262
志 236053121
誌 236053121
温 235781153
溫 235781153
紧 235203515
緊 235203515
伤 234978809
傷 234978809
负 234899162
負 234899162
景 234878289
卡 234537240
微 233418111
获 232764395
獲 232764395
穫 232764395
训 232597258
訓 232597258
叫 232442156
武 231831313
福 231557577
策 231387581
执 231262863
執 231262863
角 231063550
升 230589413
昇 230589413
汽 230212818
石 229845329
千 229751137
韆 229751137
访 229308315
訪 229308315
银 229065466
銀 229065466
培 228706810
晚 228516905
希 228321701
酒 227197684
充 227114044
短 226251556
例 226115423
致 226027894
緻 226027894
画 225937151
畫 225937151
养 225613487
養 225613487
亚 225471661
亞 225471661
林 224871225
杀 224836258
殺 224836258
操 224250434
独 224205412
獨 224205412
居 223883969
厂 223658836
廠 223658836
批 223518010
待 221253870
族 221029623
互 220376177
依 220311444
兴 219906211
興 219906211
八 218836980
承 218669526
普 217786249
群 217076485
羣 217076485
害 216878324
益 216535315
刻 216342535
词 215328795
詞 215328795
富 215014129
域 213934592
典 213398239
初 213313374
答 212904069
层 212765852
層 212765852
止 212708438
派 210296487
仅 209831473
僅 209831473
玩 206856823
够 206521750
夠 206521750
却 205848198
卻 205848198
虽 205247440
雖 205247440
史 204743996
龙 204580287
龍 204580287
久 203916651
古 203817315
严 203547559
嚴 203547559
贸 203417906
貿 203417906
衣 203262672
乎 203206251
春 203128685
港 203112606
讯 203106132
訊 203106132
刚 202952628
剛 202952628
卫 202901561
衛 202901561
析 202754021
灵 202731714
靈 202731714
康 199554612
库 199549119
庫 199549119
呵 199542621
纪 198696701
紀 198696701
键 197804283
鍵 197804283
惊 197638266
驚 197638266
班 197610237
警 197577183
按 197558340
疗 197197226
療 197197226
陆 195120471
陸 195120471
须 194115807
須 194115807
鬚 194115807
略 193885874
黄 191864325
黃 191864325
官 190373999
剧 189973072
劇 189973072
魔 189513279
夫 189169036
伕 189169036
移 188153773
夜 187727316
汉 187687256
漢 187687256
脸 187523697
臉 187523697
令 187493465
味 186844897
拍 186275890
婚 185627592
般 185568341
米 185273615
谈 185161087
談 185161087
临 185010293
臨 185010293
革 183713864
跟 183702860
河 183567094
谁 182327662
誰 182327662
右 181407879
担 179860198
擔 179860198
土 179813703
座 178169293
村 177274618
顶 176383761
頂 176383761
毒 176151101
奖 175573647
獎 175573647
博 175170640
皮 175136050
讲 175111738
講 175111738
税 174233914
稅 174233914
急 173934765
哪 173926874
核 173906283
覈 173906283
停 173308931
笔 172330606
筆 172330606
姐 172315465
静 172033015
靜 172033015
良 171896989
似 170740939
被 170729064
背 170287003
揹 170287003
审 170271578
審 170271578
愿 170202295
願 170202295
拿 169964830
付 169106748
差 169029122
均 168869545
亮 168751706
省 168669122
铁 168349949
鐵 168349949
私 167948924
俬 167948924
铃 167947807
鈴 167947807
苦 167768532
继 167519685
繼 167519685
母 167355083
降 166711708
套 166461663
述 166306734
浏 166140184
瀏 166140184
航 166118750
补 165944383
補 165944383
著 165691952
迷 164660377
异 164522362
異 164522362
讨 163589957
討 163589957
云 163178780
雲 163178780
冲 162847215
衝 162847215
沖 162847215
攻 161928563
币 161440763
幣 161440763
练 161398256
練 161398256
遇 160561583
察 160390486
兵 160072510
卖 159595453
賣 159595453
附 159589509
毕 159488796
畢 159488796
竞 157385615
競 157385615
木 156459003
追 156418784
冷 156265630
申 156010265
筑 155993092
築 155993092
左 155869803
怕 154855450
哥 154252325
妈 154220748
媽 154220748
巴 154170221
波 154074780
句 153923261
括 153148222
链 153030412
鏈 153030412
鍊 153030412
箱 153027895
倒 153018785
七 152660820
吧 152204566
善 151941292
顾 151932197
顧 151932197
丽 151661283
麗 151661283
午 151590949
怪 151301611
疑 151051373
礼 150225111
禮 150225111
宣 150126041
假 149946058
础 149656844
礎 149656844
罗 149629903
羅 149629903
吸 149344375
弟 149089997
幕 149064510
额 148925094
額 148925094
误 148380257
誤 148380257
湖 148360956
幸 148085946
倖 148085946
坚 147924987
堅 147924987
浪 147793623
竟 147700543
痛 147621906
父 147356228
媒 147234648
征 146822397
徵 146822397
签 146760379
籤 146760379
簽 146760379
露 146351150
智 146080666
饰 145776715
飾 145776715
尚 145117566
减 144250489
減 144250489
暂 144224563
暫 144224563
硬 144148743
漫 141536662
娱 141154695
娛 141154695
拥 141101847
擁 141101847
秘 140858629
祕 140858629
端 140483152
梦 140248995
夢 140248995
曾 140221085
劳 139998442
勞 139998442
副 139343368
松 139229224
鬆 139229224
盟 138971101
圳 138641492
坐 138583665
座 138583665
幻 138135977
欧 138056186
歐 138056186
永 137752801
呼 137324015
休 136920103
兰 136911327
蘭 136911327
馆 136388670
館 136388670
综 135979081
綜 135979081
暗 135649684
闇 135649684
慢 135574960
订 135506685
訂 135506685
九 134763200
退 134531251
央 132981077
烈 132884935
苏 132519077
蘇 132519077
甦 132519077
囌 132519077
械 132457737
菜 131911858
怀 131444564
懷 131444564
射 131177919
咨 131050675
諮 131050675
顺 130859433
順 130859433
趣 130752196
贵 130472592
貴 130472592
块 129698607
塊 129698607
脚 129603345
腳 129603345
摄 129580484
攝 129580484
洲 128941132
唱 128883281
庭 128487387
沉 128441515
汇 128285078
匯 128285078
彙 128285078
甚 128283987
透 128098497
含 127996086
稳 127956968
穩 127956968
胜 126401915
勝 126401915
守 126157615
启 126083275
啓 126083275
树 126031915
樹 126031915
某 125650732
摇 125572099
搖 125572099
佳 125566203
托 125284173
託 125284173
缺 124990318
阵 124905640
陣 124905640
丝 124358896
絲 124358896
档 124259054
檔 124259054
掉 124124172
犯 123714844
斗 123677810
鬥 123677810
恶 123311922
惡 123311922
噁 123311922
韩 123184732
韓 123184732
舞 123165953
禁 123149553
融 122955535
督 122719369
堂 122123126
季 122051070
草 122011255
毛 121827004
杂 121269120
雜 121269120
寻 121158630
尋 121158630
街 121130892
献 120969408
獻 120969408
默 120798344
租 120389998
救 120346352
熟 120193802
挥 120166473
揮 120166473
散 119613464
钢 119393933
鋼 119393933
沙 118989075
乱 118022739
亂 118022739
恐 117398400
概 117381117
隐 117358676
隱 117358676
聘 117228291
障 117211820
秀 116589589
忙 115853349
弹 115852934
彈 115852934
雨 115199009
纳 115076135
納 115076135
促 114939223
庆 114939174
慶 114939174
仪 114743490
儀 114743490
阶 114456556
階 114456556
朝 114278748
探 114156518
绿 113866506
綠 113866506
绩 113845788
績 113845788
饭 113842989
飯 113842989
床 113592812
牀 113592812
宁 113467605
寧 113467605
甯 113467605
跳 113323011
巨 113016881
鉅 113016881
敢 112674664
忘 112574759
餐 112550391
封 112353342
占 112110358
佔 112110358
诚 111684228
誠 111684228
窗 111612258
妹 111407952
伙 110970297
夥 110970297
屋 110803382
湾 110641704
灣 110641704
昨 110391476
掌 110118879
阿 110096980
符 110095092
尼 110003160
纸 109972526
紙 109972526
暴 109867900
丰 109840265
豐 109840265
穿 109531628
恋 109495641
戀 109495641
睡 109185992
脱 108708038
脫 108708038
宽 108429997
寬 108429997
鲜 108410407
鮮 108410407
屏 107899088
折 107454522
摺 107454522
跑 106900278
抗 106333174
液 106214839
奥 106098673
奧 106098673
闭 105965910
閉 105965910
烟 105744121
煙 105744121
菸 105744121
损 105454527
損 105454527
渐 105202176
漸 105202176
耳 105095022
固 104661928
洗 104226134
避 104165065
判 104132107
束 103687078
困 103563760
睏 103563760
券 103491070
篇 103210817
醒 103156626
牛 103118283
努 103079077
挂 102947617
掛 102947617
架 102934316
巧 102893662
若 102875645
余 102813279
餘 102813279
赶 102736079
趕 102736079
灯 102558046
燈 102558046
坏 102387915
壞 102387915
败 102337574
敗 102337574
淡 102277017
虚 102266459
虛 102266459
爆 102167917
添 101910726
针 101878870
針 101878870
鍼 101878870
翻 101827669
钟 101181242
鍾 101181242
鐘 101181242
狂 100913840
童 100881796
靠 100780676
染 100145300
握 100049000
抓 100021919
危 100017408
闪 100002257
閃 100002257
仍 99906752
途 99447430
卷 99360201
捲 99360201
轮 99291496
輪 99291496
鱼 99072401
魚 99072401
缩 99004241
縮 99004241
伴 98907941
姓 98265380
聊 98155953
违 97827827
違 97827827
麻 97560914
释 97429797
釋 97429797
罪 97357805
席 97327113
蓆 97327113
届 97147546
屆 97147546
剑 96797608
劍 96797608
乡 96587544
鄉 96587544
栏 96349305
欄 96349305
妇 96336371
婦 96336371
纯 96106503
純 96106503
肯 96092357
帝 96071441
睛 96068452
闲 96056903
閒 96056903
閑 96056903
贷 95915590
貸 95915590
毫 95631750
虑 95591333
慮 95591333
厅 95555821
廳 95555821
野 95099355
楚 94763954
晶 94689990
归 94356214
歸 94356214
雪 94311269
镜 94223843
鏡 94223843
纷 94139768
紛 94139768
扬 93965414
揚 93965414
肉 93195244
赏 93069937
賞 93069937
描 92819628
雄 92643916
蓝 92518138
藍 92518138
刺 92513625
洋 91547591
缓 91416958
緩 91416958
刀 91194435
冰 90720099
阴 90292414
陰 90292414
逐 89881806
夏 89843844
触 89385760
觸 89385760
皇 89382364
忍 88984842
兄 88944675
扩 88816012
擴 88816012
镇 88467362
鎮 88467362
抱 87749405
遗 87115578
遺 87115578
肤 87078060
膚 87078060
零 87012470
佛 86940155
彿 86940155
驱 86599523
驅 86599523
浙 86488954
骨 86369410
侵 86193622
聚 86193112
敌 86164914
敵 86164914
泪 85964492
淚 85964492
删 85878017
刪 85878017
顿 85857599
頓 85857599
措 85412782
宜 85192819
饮 85028170
飲 85028170
塑 84580574
雅 84494680
拟 84462173
擬 84462173
幅 84425967
岛 84238405
島 84238405
蛋 84196827
贝 83846329
貝 83846329
插 83768547
甲 83596891
荣 83202801
榮 83202801
嘴 83025278
偷 82995743
颜 82779016
顏 82779016
迹 82721999
跡 82721999
蹟 82721999
借 82660721
藉 82660721
惠 82581920
杯 82536288
盃 82536288
亡 82502278
忽 82415560
潮 82244036
旁 82008636
予 81884270
摩 81868068
缘 81679129
緣 81679129
圣 81652483
聖 81652483
净 81522942
淨 81522942
喝 81244295
岁 80999281
歲 80999281
混 80791382
雷 80569472
川 80551895
粉 80504476
珠 80276317
爸 80084472
估 80056138
齐 79893077
齊 79893077
弱 79771365
忆 79115807
憶 79115807
漂 78916243
旧 78870383
舊 78870383
储 78638275
儲 78638275
挑 78631858
尊 78612293
柔 78571558
既 77934959
彻 77880826
徹 77880826
刷 77597766
距 77447567
啊 77346778
诺 77202459
諾 77202459
励 76992870
勵 76992870
盛 76943747
牙 76898179
妻 76706436
赚 76683131
賺 76683131
鼠 76668874
谓 76519470
謂 76519470
欣 76311200
桌 75822573
叶 75773546
葉 75773546
丁 75372471
县 74490672
縣 74490672
厚 74294418
涨 74120708
漲 74120708
累 74100177
繁 73989337
婆 73911592
李 73794396
茶 73762567
润 73402768
潤 73402768
奶 73081327
吉 72952010
酸 72839491
痠 72839491
弃 72626560
棄 72626560
田 72589856
诗 72408789
詩 72408789
悉 72126538
延 72081067
娘 71987127
孃 71987127
映 71937966
尤 71898356
鬼 71751468
宫 71706047
宮 71706047
魅 71572209
盗 71467161
盜 71467161
患 71288352
伊 71144959
迅 71116517
唯 71005219
冒 70987878
秋 70814920
鞦 70814920
逃 70794667
津 70741710
鼓 70706095
欲 70666777
慾 70666777
偶 70325932
侠 70248799
俠 70248799
奋 70020013
奮 70020013
豪 70006459
刊 69994159
贡 69917867
貢 69917867
爷 69741237
爺 69741237
炎 69575115
洁 69495743
潔 69495743
烦 69461204
煩 69461204
玉 69317332
衔 69190124
銜 69190124
懂 69113036
返 68944193
肥 68450902
焦 68398126
遍 68396148
召 68368739
锁 68295260
鎖 68295260
祝 68293309
惜 68262720
亿 67964987
億 67964987
冠 67706311
墙 67324212
牆 67324212
烧 67129486
燒 67129486
船 66989596
震 66976460
胸 66900276
矿 66855639
礦 66855639
污 66552193
疾 66411430
帐 66389899
帳 66389899
惯 66001839
慣 66001839
厦 65897543
廈 65897543
抢 65876861
搶 65876861
剂 65782632
劑 65782632
植 65650239
池 65419752
蒙 65314374
矇 65314374
濛 65314374
懞 65314374
潜 64992208
潛 64992208
誉 64902086
譽 64902086
圆 64815564
圓 64815564
胶 64758362
膠 64758362
殊 64548801
虎 64500079
涉 64490159
捷 64461564
兽 64460320
獸 64460320
俱 64038265
径 63249462
徑 63249462
译 63047990
譯 63047990
桥 63036679
橋 63036679
盖 62971036
蓋 62971036
龄 62730282
齡 62730282
阻 62389407
珍 62325459
恢 62277926
舍 62218811
捨 62218811
滑 61763760
摆 61690951
擺 61690951
襬 61690951
悲 61652772
偏 61636603
抽 61425856
贯 61313113
貫 61313113
郁 61282818
鬱 61282818
症 61241517
癥 61241517
怒 61222201
妙 61142685
嘿 60981835
宾 60870491
賓 60870491
仿 60852951
彷 60852951
稿 60826590
残 60443536
殘 60443536
寸 60360203
替 60292432
洞 60278837
填 60033173
末 59542240
滚 59389681
滾 59389681
敬 59335407
搞 59273054
尺 59271864
忧 59114425
憂 59114425
鸡 58912796
雞 58912796
宗 58691977
赞 58493077
贊 58493077
讚 58493077
遭 58483795
圈 58306816
骑 58159459
騎 58159459
夹 58128849
夾 58128849
践 58128587
踐 58128587
暖 58094541
勇 58080712
仔 57955571
冬 57942072
鼕 57942072
伸 57937321
孤 57861681
抵 57771306
牴 57771306
凡 57544014
裁 57300303
叹 57277434
嘆 57277434
歎 57277434
辅 57260746
輔 57260746
灭 57141693
滅 57141693
湿 57071405
溼 57071405
惑 56955244
森 56901661
杭 56895214
伦 56843570
倫 56843570
竹 56807541
燃 56745137
岗 56574436
崗 56574436
刑 56538347
豆 56461963
拜 56260666
旦 56240303
骗 56197890
騙 56197890
偿 56062954
償 56062954
耐 56032623
莫 55998494
隔 55826703
截 55811107
糖 55665397
奔 55650378
跌 55419656
尾 55180552
舒 55163897
废 54967012
廢 54967012
狗 54845948
仙 54773746
泛 54769881
氾 54769881
汎 54769881
衡 54676599
寒 54592883
趋 54409521
趨 54409521
枪 54408009
槍 54408009
辈 54388804
輩 54388804
陷 54301185
递 54134478
遞 54134478
驾 53736000
駕 53736000
横 53715506
橫 53715506
袋 53632410
拒 53605963
榜 53352769
幼 53304951
侧 53248593
側 53248593
灌 53219238
飘 53137139
飄 53137139
剩 53078502
厉 53076414
厲 53076414
扫 53001549
掃 53001549
庄 52969175
莊 52969175
锋 52889157
鋒 52889157
敏 52779269
闹 52736797
鬧 52736797
弄 52574844
於 52560008
幽 52504543
迫 52473069
陈 52322249
陳 52322249
虫 52316905
蟲 52316905
炸 52261843
辆 52166357
輛 52166357
鉴 52072572
鑑 52072572
鑒 52072572
壁 51936007
荡 51886875
蕩 51886875
盪 51886875
扣 51776171
釦 51776171
夺 51623407
奪 51623407
罚 51605591
罰 51605591
劲 51433957
勁 51433957
伍 51424154
坦 51366882
岸 51140845
摸 51049037
疯 50830319
瘋 50830319
旋 50757171
猪 50565923
豬 50565923
朗 50531187
糊 50472385
泰 50401635
峰 50226622
峯 50226622
霸 50172809
乘 49742117
纺 49692434
紡 49692434
胡 49633818
鬍 49633818
衚 49633818
魂 49451186
斑 49449300
跃 49203696
躍 49203696
拼 49182941
猛 49179764
擎 49149614
耗 48769067
踪 48743300
蹤 48743300
乳 48699373
兼 48673219
倾 48601131
傾 48601131
恩 48517236
璃 48421437
硕 48387722
碩 48387722
疫 48280068
遵 48254458
债 48195211
債 48195211
腿 48141411
鞋 48065643
袭 47926713
襲 47926713
旗 47847957
滋 47833550
晨 47825827
炼 47642078
煉 47642078
鍊 47642078
磨 47633645
胆 47529635
膽 47529635
塞 47524326
篮 47477775
籃 47477775
辛 47364744
籍 47362302
哭 47324954
徒 47214173
董 46915281
伟 46844916
偉 46844916
壮 46790807
壯 46790807
鲁 46703525
魯 46703525
瓶 46681096
碎 46557009
浓 46528991
濃 46528991
薄 46523296
俗 46481531
貌 46387540
摘 46326404
吗 46321432
嗎 46321432
肩 46294287
腾 46266813
騰 46266813
瑞 46239429
宠 46149784
寵 46149784
尿 46019449
诱 46018929
誘 46018929
浮 45967800
尝 45965719
嘗 45965719
嚐 45965719
揭 45950063
祖 45905903
呆 45898707
玻 45758471
萨 45743113
薩 45743113
甘 45662021
悄 45559477
纵 45460549
縱 45460549
灾 45457934
災 45457934
怖 45361712
遥 45358007
遙 45358007
迟 45314045
遲 45314045
寂 45279105
隆 45044906
宿 45012761
磁 45012645
谋 44978968
謀 44978968
姑 44967358
搭 44933228
丈 44867072
涂 44866425
塗 44866425
羊 44856546
绪 44819860
緒 44819860
鸟 44778074
鳥 44778074
腐 44575202
尘 44548767
塵 44548767
碰 44387679
狠 44341235
陪 44301384
甜 44247863
眉 44222773
眠 44212320
诸 44080166
諸 44080166
诊 44050516
診 44050516
覆 43976189
番 43953733
扰 43930836
擾 43930836
狐 43851183
酷 43839352
沟 43776987
溝 43776987
允 43769606
凭 43758479
憑 43758479
畅 43580880
暢 43580880
拔 43542165
恨 43437926
赢 43418049
贏 43418049
谐 43387121
諧 43387121
喷 43331572
噴 43331572
抑 43259619
贫 43162406
貧 43162406
紫 43142965
尖 42735839
煤 42716011
驶 42636368
駛 42636368
馈 42554262
饋 42554262
灰 42538527
撞 42528227
援 42477598
肌 42411070
胞 42398160
闷 42395284
悶 42395284
孔 42374643
迪 42186744
沿 42183376
奈 42147038
犹 41960794
猶 41960794
凝 41933085
猜 41869233
滴 41841037
乏 41829589
孕 41790842
玄 41784096
宅 41597126
澳 41537144
洛 41525416
筹 41211980
籌 41211980
姻 41025938
颗 41025477
顆 41025477
凉 41023708
涼 41023708
泽 40974960
澤 40974960
丹 40939533
稍 40902547
俄 40896428
帅 40691448
帥 40691448
乌 40517865
烏 40517865
绕 40485126
繞 40485126
唐 40431536
昏 40272001
廉 40249497
瞬 40200622
铺 40099405
鋪 40099405
泡 40006907
拓 39947847
奏 39890618
诞 39843036
誕 39843036
薪 39802477
圾 39734901
垃 39734901
伯 39692469
裂 39631257
娃 39381509
悠 39189890
吓 38999482
嚇 38999482
麦 38977992
麥 38977992
碍 38899912
礙 38899912
毁 38852021
毀 38852021
燬 38852021
譭 38852021
拖 38801467
纠 38778419
糾 38778419
纤 38759205
纖 38759205
縴 38759205
脂 38545839
赔 38543221
賠 38543221
倍 38519607
腰 38425540
杰 38361438
傑 38361438
循 38342138
莱 38131071
萊 38131071
吹 38060965
惨 37970476
慘 37970476
署 37860172
勤 37684610
墨 37433747
邀 37385727
慰 37380588
拨 37160314
撥 37160314
宇 37065605
喊 37028104
芯 36979340
振 36952309
盒 36899989
泉 36816063
妆 36675601
妝 36675601
拳 36671637
骂 36611480
罵 36611480
盈 36471448
漏 36448090
愈 36434046
癒 36434046
脉 36339041
脈 36339041
粮 36274680
糧 36274680
跨 36170866
框 35808224
慧 35719441
醉 35661563
戒 35637503
赖 35629820
賴 35629820
谷 35556668
穀 35556668
晰 35537331
艳 35499941
豔 35499941
仓 35499579
倉 35499579
苗 35382832
宏 35325378
塔 35206808
赠 35205916
贈 35205916
扎 35121293
紮 35121293
鼻 35107504
朵 35091432
踏 35061149
姿 35052498
扮 34915848
泥 34909579
瓜 34909522
盾 34831615
姆 34791208
郎 34727373
寄 34705521
浴 34630507
扶 34603402
辞 34524159
辭 34524159
辽 34513886
遼 34513886
厌 34506790
厭 34506790
扑 34503737
撲 34503737
膜 34438866
艾 34404412
晓 34388087
曉 34388087
疼 34346532
寿 34284345
壽 34284345
彼 34133786
苍 34097010
蒼 34097010
吐 34073921
桃 33873485
绘 33863342
繪 33863342
弦 33741578
絃 33741578
傲 33691451
郑 33687214
鄭 33687214
徽 33628515
脏 33503774
髒 33503774
臟 33503774
裤 33484434
褲 33484434
牵 33478264
牽 33478264
舰 33325782
艦 33325782
愤 33309744
憤 33309744
柜 33302079
櫃 33302079
迁 33246094
遷 33246094
聪 33159557
聰 33159557
肃 33092305
肅 33092305
渠 33071386
菌 33017527
辨 33009913
堆 32960112
殖 32935626
汗 32925999
怜 32890068
憐 32890068
粗 32806439
捕 32796236
匆 32775435
擦 32759002
怨 32742222
戴 32666197
携 32619324
攜 32619324
疆 32613029
抬 32602565
擡 32602565
钻 32586475
鑽 32586475
君 32505253
恒 32498794
恆 32498794
箭 32414317
咖 32326944
沈 32316826
瀋 32316826
锦 32313094
錦 32313094
氧 32173882
逼 31977994
爬 31878421
爽 31872180
辉 31852683
輝 31852683
氛 31811637
乙 31789504
悬 31664139
懸 31664139
矛 31590644
仰 31582209
账 31569232
賬 31569232
勒 31516372
雕 31432311
鵰 31432311
啡 31355449
挺 31305278
狱 31230192
獄 31230192
侣 31225174
侶 31225174
刘 31119847
劉 31119847
厨 31000091
廚 31000091
锅 30992090
鍋 30992090
仇 30944416
讎 30944416
裸 30888791
欺 30878746
恼 30813730
惱 30813730
串 30619947
罢 30611320
罷 30611320
傻 30532354
浅 30511823
淺 30511823
轨 30473127
軌 30473127
挡 30438032
擋 30438032
痕 30434538
寞 30429334
忠 30367518
割 30316196
猫 30284089
貓 30284089
垂 30274019
烂 30264353
爛 30264353
狼 30239485
凶 30228921
兇 30228921
慎 30166952
蜜 30113951
伪 30108719
僞 30108719
凌 30077931
淩 30077931
嫌 30015805
涯 30014155
腹 29974360
纹 29939217
紋 29939217
躲 29924920
梯 29895975
涌 29867291
琴 29865687
亏 29780878
虧 29780878
娇 29716364
嬌 29716364
奉 29683011
曼 29622585
荷 29601719
炮 29591593
荒 29564253
纽 29493110
紐 29493110
鈕 29493110
悔 29344930
椅 29334303
巡 29216044
坡 29155906
嘻 29141814
炉 29006838
爐 29006838
疲 28960473
恰 28918349
肚 28839907
抚 28807604
撫 28807604
牢 28756949
辣 28690416
谱 28650767
譜 28650767
胎 28625973
尸 28603785
屍 28603785
凯 28585851
凱 28585851
唤 28576511
喚 28576511
稀 28558385
穷 28516451
窮 28516451
叔 28508526
陶 28471259
妖 28452614
佩 28427157
拆 28363868
陕 28326425
陝 28326425
茫 28288917
邻 28236577
鄰 28236577
肝 28160240
御 28156492
禦 28156492
艰 28087430
艱 28087430
孙 28079952
孫 28079952
禽 28052351
滨 28051888
濱 28051888
凤 27962996
鳳 27962996
搬 27922858
丢 27848827
丟 27848827
哀 27805300
仁 27795081
牧 27775895
棋 27762850
肿 27719175
腫 27719175
滤 27645423
濾 27645423
慕 27634837
吻 27547088
熊 27544392
猎 27543305
獵 27543305
菲 27533034
斤 27404787
函 27372058
脆 27312102
漠 27293840
轿 27291001
轎 27291001
悟 27261802
躺 27223461
掩 27222091
膀 27198667
旨 27191982
呀 27169073
臂 27133901
伏 27102676
惧 27094591
懼 27094591
棉 27092093
痴 27029705
癡 27029705
泄 26959051
丧 26952681
喪 26952681
梅 26814784
歉 26807436
驰 26800290
馳 26800290
柱 26751930
谨 26702957
謹 26702957
贺 26683135
賀 26683135
阔 26633663
闊 26633663
驻 26531227
駐 26531227
悦 26525235
悅 26525235
弯 26513161
彎 26513161
扭 26356480
碟 26300183
雾 26290230
霧 26290230
颁 26168358
頒 26168358
咬 26139054
咱 26086418
睁 26040891
睜 26040891
胁 26017004
脅 26017004
缠 25953844
纏 25953844
辩 25870042
辯 25870042
翼 25848521
呈 25839030
昌 25832379
曝 25821948
锐 25805921
銳 25805921
绵 25781185
綿 25781185
纲 25738432
綱 25738432
肠 25685165
腸 25685165
撑 25481486
撐 25481486
癌 25448802
瓷 25312426
慌 25187863
囊 25133884
恭 25097544
迈 24930098
邁 24930098
豫 24881052
堪 24864159
亦 24784891
婴 24742799
嬰 24742799
淋 24701042
殿 24699379
哲 24666019
撤 24588501
剪 24549753
黎 24539442
唇 24528847
脣 24528847
劣 24494208
秒 24487819
钮 24487635
鈕 24487635
嘉 24485090
抛 24479732
拋 24479732
齿 24468585
齒 24468585
晕 24406572
暈 24406572
陌 24405173
缴 24357843
繳 24357843
披 24347514
轰 24339386
轟 24339386
邦 24333179
卧 24304009
臥 24304009
瓦 24284573
祥 24267532
骤 24228587
驟 24228587
乖 24211246
羞 24146475
挤 24141068
擠 24141068
埋 24134564
淫 24108319
粒 24052129
辱 24048112
瑰 23998464
莲 23926495
蓮 23926495
晃 23854452
虹 23844751
匹 23824139
铜 23810050
銅 23810050
淘 23793192
渴 23748055
欠 23701445
赌 23698457
賭 23698457
奸 23693661
姦 23693661
袖 23560484
瞧 23495954
丛 23476309
叢 23476309
耀 23377556
缝 23375325
縫 23375325
昆 23337528
崑 23337528
崇 23327713
皱 23324671
皺 23324671
呢 23288382
井 23284851
辖 23279702
轄 23279702
渡 23233449
挣 23226852
掙 23226852
纱 23200240
紗 23200240
汤 23188790
湯 23188790
颇 23000400
頗 23000400
忌 22969913
吞 22892729
侦 22852860
偵 22852860
羽 22852562
寓 22745199
拾 22710078
玫 22661395
徐 22603512
劫 22597978
抖 22597430
丫 22541934
桑 22495632
苹 22412824
蘋 22412824
埃 22362973
懒 22339189
懶 22339189
壳 22320771
殼 22320771
玛 22289171
瑪 22289171
棒 22258174
堡 22204464
擅 22201719
履 22171028
嫁 22125740
峡 22123930
峽 22123930
屈 22116896
谅 22065141
諒 22065141
阁 22031564
閣 22031564
贪 21992389
貪 21992389
赤 21971381
涵 21970336
兔 21951196
泳 21884449
腔 21839027
馨 21792298
蓄 21779809
莞 21778227
蔬 21741822
糕 21629566
祸 21617441
禍 21617441
浑 21607971
渾 21607971
挖 21575369
杆 21559254
桿 21559254
吊 21527877
弔 21527877
盯 21518684
敲 21320296
绑 21320164
綁 21320164
杨 21283392
楊 21283392
愉 21261595
乃 21193329
讼 21116213
訟 21116213
舟 21104157
屁 21096188
讶 21092488
訝 21092488
鸣 20928297
鳴 20928297
俊 20885881
儁 20885881
炭 20873783
舌 20757059
邪 20753763
蝶 20736836
桂 20712257
憾 20676165
狮 20668079
獅 20668079
滩 20647342
灘 20647342
胃 20576778
勃 20542340
芳 20511841
妥 20500692
捐 20499497
胖 20494473
芒 20440880
梁 20424653
樑 20424653
丑 20411129
醜 20411129
螺 20379451
轴 20373180
軸 20373180
锈 20241413
鏽 20241413
撒 20232757
役 20219144
筋 20196606
骚 20194014
騷 20194014
庞 20180170
龐 20180170
酬 20162429
弥 20146007
彌 20146007
瀰 20146007
锻 20144385
鍛 20144385
慈 20132671
颤 20107663
顫 20107663
俩 20105047
倆 20105047
夕 20055325
逆 20028485
饱 19965464
飽 19965464
橡 19920361
宋 19917092
窃 19867069
竊 19867069
饲 19819573
飼 19819573
掘 19781038
腺 19777425
逻 19761056
邏 19761056
罩 19702915
吵 19695595
骄 19651188
驕 19651188
阀 19650166
閥 19650166
漆 19639725
瞪 19639031
巾 19585748
逝 19570621
昂 19516415
芝 19497422
浦 19456892
粘 19434713
刹 19422468
剎 19422468
赫 19316641
押 19310474
捉 19262522
洪 19238046
衰 19195584
锡 19176861
錫 19176861
娜 19152864
燥 19141564
萄 19000068
葡 19000068
旺 18995208
尴 18936467
尷 18936467
尬 18936467
瘤 18877507
臣 18867826
枝 18828189
洒 18821413
灑 18821413
赁 18788273
賃 18788273
媚 18728588
谊 18715371
誼 18715371
斜 18692098
妨 18679410
夸 18661076
誇 18661076
喘 18656554
秩 18617657
燕 18609137
惹 18603371
蜂 18588440
吟 18552931
哼 18551462
皆 18536872
抹 18476244
氏 18450909
浩 18409245
勿 18399506
冻 18373509
凍 18373509
煌 18349930
劝 18266169
勸 18266169
疏 18179418
蔽 18146600
贼 18120317
賊 18120317
催 18119257
洽 18118031
拦 18117034
攔 18117034
炒 18114314
叛 18070583
倡 18001289
吨 17992113
噸 17992113
帽 17989446
颈 17888282
頸 17888282
溜 17871717
蒂 17855540
伐 17832754
盐 17808372
鹽 17808372
笼 17761990
籠 17761990
契 17761441
柳 17697095
岩 17685127
巖 17685127
顽 17658653
頑 17658653
肺 17637672
牲 17615117
誓 17575497
敦 17575145
叉 17519793
糟 17492078
赋 17476857
賦 17476857
廷 17451669
溶 17444569
喃 17382145
爵 17371481
焰 17351006
泵 17345970
暑 17331333
臭 17327996
扇 17316147
愧 17302559
宙 17291903
衷 17277933
裙 17277340
泌 17172321
翔 17155639
斥 17128083
溃 17097931
潰 17097931
翁 17066681
勾 17056800
傅 17044884
岂 16995207
豈 16995207
厘 16975961
釐 16975961
啦 16877961
肾 16870606
腎 16870606
逢 16857902
秦 16852897
愁 16850311
耻 16723073
恥 16723073
宪 16700316
憲 16700316
窝 16699672
窩 16699672
碧 16536724
郊 16524595
脾 16512475
吼 16501015
瘦 16484623
渔 16480361
漁 16480361
乔 16397412
喬 16397412
砖 16330851
磚 16330851
卓 16268488
惩 16222418
懲 16222418
赴 16186096
厕 16153434
廁 16153434
霉 16135438
黴 16135438
匙 16098246
铝 16086081
鋁 16086081
盲 16047751
柴 16014951
矩 15961599
榘 15961599
脊 15935174
筒 15915844
勉 15907910
寺 15897227
坊 15882613
墓 15820066
衫 15816891
盆 15760847
畜 15737978
愣 15621174
桶 15620395
弊 15612598
扯 15555929
宴 15506004
慨 15489461
朱 15403393
硃 15403393
邓 15335358
鄧 15335358
摊 15285890
攤 15285890
捧 15258237
匿 15255194
咒 15251354
辰 15225573
翅 15212098
诈 15196357
詐 15196357
莉 15185328
廊 15171284
蒸 15152761
缆 15101461
纜 15101461
卸 15094560
雀 15094239
侍 15085730
杜 15082611
灿 15050467
燦 15050467
帕 15050074
蓉 15034893
凰 15024410
蹈 15022425
躯 14965937
軀 14965937
卑 14861868
烤 14845759
逛 14840062
牺 14801962
犧 14801962
钥 14782357
鑰 14782357
衬 14749962
襯 14749962
绳 14731137
繩 14731137
谎 14658404
謊 14658404
穴 14616986
奴 14602812
彰 14601222
鹰 14599164
鷹 14599164
泣 14462308
盼 14426331
蝴 14411758
柏 14379706
晴 14373020
饼 14354941
餅 14354941
闯 14343928
闖 14343928
碑 14313325
抄 14302939
渗 14298931
滲 14298931
朴 14294150
樸 14294150
蛮 14252615
蠻 14252615
晋 14252390
晉 14252390
耶 14246818
泼 14164144
潑 14164144
绎 14121497
繹 14121497
嫩 14076917
饿 14076792
餓 14076792
吁 14048420
籲 14048420
枯 14043734
卜 14027872
蔔 14027872
沪 13997816
滬 13997816
碳 13980927
墅 13965736
凄 13937123
悽 13937123
淒 13937123
屠 13930865
汁 13922124
兑 13901501
兌 13901501
僵 13881772
殭 13881772
溢 13876584
脖 13872331
吴 13859636
吳 13859636
咽 13809869
嚥 13809869
撼 13801355
逸 13745201
噪 13721209
譟 13721209
沃 13714563
羡 13701269
羨 13701269
坠 13697016
墜 13697016
竭 13660084
攀 13633643
垫 13632373
墊 13632373
遮 13622426
扁 13613791
旬 13610779
砍 13575861
妮 13546949
粤 13530203
粵 13530203
粹 13432999
掀 13413419
奢 13399814
潇 13397872
瀟 13397872
挽 13385089
輓 13385089
肢 13354420
耕 13345122
沧 13340240
滄 13340240
蛇 13310477
惟 13307691
勋 13303146
勳 13303146
凑 13291740
湊 13291740
啸 13279497
嘯 13279497
涛 13272780
濤 13272780
赵 13254471
趙 13254471
焊 13247826
祭 13197116
逍 13146564
雇 13126216
僱 13126216
铸 13100298
鑄 13100298
浸 13093222
鄙 13021769
搏 13015265
陵 12998409
弗 12982791
庙 12973894
廟 12973894
喉 12944038
靓 12939418
靚 12939418
疹 12934529
栽 12924848
艇 12879789
啤 12802849
畏 12789485
愚 12776647
肪 12752280
厢 12718926
廂 12718926
叠 12714701
疊 12714701
佣 12713294
傭 12713294
呜 12697133
嗚 12697133
芬 12678074
肆 12677583
萝 12664545
蘿 12664545
稻 12602065
颖 12600705
穎 12600705
踢 12596630
腊 12578104
臘 12578104
摔 12565668
躁 12531769
樱 12449029
櫻 12449029
仲 12442356
碗 12440276
歧 12423169
虾 12418822
蝦 12418822
鼎 12382031
嘲 12345543
澡 12338033
泊 12333054
韵 12325052
韻 12325052
诀 12312670
訣 12312670
拘 12302104
霍 12291520
屑 12287554
胀 12266916
脹 12266916
叙 12241065
敘 12241065
崩 12220094
削 12194734
滞 12193876
滯 12193876
浆 12176377
漿 12176377
醇 12163200
莎 12161709
涩 12147518
澀 12147518
氓 12127741
歪 12072597
翠 12035504
翰 12030594
烯 11955299
腻 11947991
膩 11947991
匀 11937356
勻 11937356
绒 11935809
絨 11935809
昵 11934705
跪 11927250
毅 11924222
沫 11887267
芙 11880436
趁 11868836
葬 11849441
堵 11799880
挫 11796842
槽 11793860
霞 11781978
魄 11761729
霜 11760660
蚁 11742821
蟻 11742821
谜 11710317
謎 11710317
祈 11681493
剥 11675813
剝 11675813
侨 11659732
僑 11659732
爹 11646501
颠 11627703
顛 11627703
淀 11576199
澱 11576199
碌 11575154
逗 11569070
仗 11503738
扔 11490103
嵌 11485202
袜 11483358
襪 11483358
倦 11474990
匪 11469273
勘 11435234
乾 11424075
罐 11359529
猴 11342687
冤 11310734
募 11288160
柯 11262250
姨 11237540
咳 11233596
椒 11187205
玲 11167719
隶 11164540
隸 11164540
撕 11159641
帘 11130983
簾 11130983
溪 11099740
诡 11085724
詭 11085724
侯 11059721
蚂 11035053
螞 11035053
贩 11030371
販 11030371
绣 11026540
繡 11026540
冶 11013641
冥 11012383
鹅 11011196
鵝 11011196
姊 11002857
宰 10986111
辜 10948973
剖 10948888
砂 10946517
咕 10926979
掏 10925485
钓 10914510
釣 10914510
丸 10879271
茎 10858158
莖 10858158
叮 10816355
笨 10796548
癣 10786515
癬 10786515
汰 10784634
菱 10782661
嗓 10769877
眸 10764625
晒 10759490
曬 10759490
鸭 10740428
鴨 10740428
菩 10697632
恍 10674501
喻 10671944
辐 10663650
輻 10663650
狭 10633245
狹 10633245
卵 10614212
咐 10612129
丙 10606632
虐 10595037
塌 10566739
咪 10564798
谣 10541863
謠 10541863
辟 10516246
闢 10516246
腕 10505750
硅 10501040
滥 10478072
濫 10478072
蠢 10467816
蕴 10459473
蘊 10459473
葛 10459343
芦 10448842
蘆 10448842
瞒 10437307
瞞 10437307
岳 10430715
嶽 10430715
棵 10420700
惕 10417825
驳 10416033
駁 10416033
膏 10391746
氨 10367380
龟 10353782
龜 10353782
卦 10350350
昔 10349714
掠 10325041
贿 10298366
賄 10298366
俏 10288692
萧 10277945
蕭 10277945
昧 10271979
酿 10271866
釀 10271866
妄 10246579
戚 10205766
慼 10205766
鏚 10205766
垄 10137369
壟 10137369
熙 10129608
阱 10125816
沸 10110176
轩 10097511
軒 10097511
懈 10071943
歹 10041683
尉 10034945
枚 10013025
蜡 9975147
蠟 9975147
裹 9970885
讽 9964525
諷 9964525
庸 9933190
遣 9932441
鸿 9925682
鴻 9925682
裕 9914819
寝 9908395
寢 9908395
甩 9907705
啥 9901879
犬 9898711
汕 9882465
哑 9874682
啞 9874682
袍 9840400
肖 9806567
妓 9786178
歇 9762048
沾 9725766
鹿 9715142
眨 9706575
蛛 9703469
凸 9693369
祷 9685923
禱 9685923
蚀 9676805
蝕 9676805
怔 9649861
赐 9635560
賜 9635560
鸦 9607068
鴉 9607068
搅 9598114
攪 9598114
贞 9593939
貞 9593939
挪 9574188
睹 9536406
逊 9536400
遜 9536400
撰 9535762
嘟 9509569
棍 9445192
茄 9436767
壤 9434562
宵 9427754
哎 9422008
株 9410719
稚 9404356
挨 9397795
捱 9397795
硫 9388045
烛 9386067
燭 9386067
烁 9373524
爍 9373524
哮 9342043
嘛 9332929
巫 9325589
拯 9322398
乞 9302686
珊 9295264
弓 9276468
酱 9270668
醬 9270668
仆 9245603
僕 9245603
瑟 9244746
隙 9221147
莹 9205768
瑩 9205768
罕 9195681
奠 9193076
枫 9178769
楓 9178769
捏 9177684
伺 9174329
饶 9130776
饒 9130776
膨 9098316
簿 9097419
疮 9088909
瘡 9088909
堕 9073079
墮 9073079
岭 9059845
嶺 9059845
膝 9036116
媳 9034367
峻 9022413
颊 9022021
頰 9022021
嚣 9013143
囂 9013143
薇 9011948
僧 9010033
贤 8994121
賢 8994121
塘 8989683
耸 8987663
聳 8987663
妒 8962938
兆 8954056
巷 8952504
湘 8923913
鞭 8895317
稽 8853248
哗 8848254
譁 8848254
嘩 8848254
竣 8776616
杏 8771870
瞄 8768153
亭 8760712
渊 8755994
淵 8755994
枕 8743932
柄 8732478
巩 8728354
鞏 8728354
屡 8722293
屢 8722293
秽 8688300
穢 8688300
坞 8678358
塢 8678358
孝 8652643
镖 8647941
鏢 8647941
斋 8638555
齋 8638555
崛 8617260
阐 8607915
闡 8607915
蕾 8600461
蟹 8573787
儒 8553071
侮 8532948
腥 8524174
矮 8520794
刃 8518590
缸 8513952
湛 8506949
帆 8490356
绽 8473246
綻 8473246
痒 8469975
癢 8469975
卉 8462746
悍 8441171
牡 8418560
敞 8406642
骇 8399920
駭 8399920
狸 8387312
喇 8383137
戈 8382840
匠 8382158
萎 8381075
茅 8379767
沦 8379767
淪 8379767
炫 8376676
铭 8332956
銘 8332956
钉 8326236
釘 8326236
嚷 8313113
翩 8291103
絮 8266861
琳 8244343
恳 8235519
懇 8235519
垒 8232123
壘 8232123
惶 8222379
谦 8206579
謙 8206579
烫 8191792
燙 8191792
茂 8189134
鳞 8184187
鱗 8184187
谍 8181921
諜 8181921
窥 8165952
窺 8165952
毯 8129576
渺 8114107
瘫 8112972
癱 8112972
亢 8112809
喧 8110910
剔 8100952
踩 8067937
舆 8056839
輿 8056839
饥 8043106
飢 8043106
饑 8043106
惫 8042254
憊 8042254
卢 8015701
盧 8015701
嘱 8008322
囑 8008322
镀 8005004
鍍 8005004
蓬 8003037
筛 7991692
篩 7991692
杉 7964029
俯 7927481
揉 7920632
穆 7905508
琐 7853895
瑣 7853895
藉 7839583
梳 7837145
吩 7834469
夷 7829664
砸 7825263
捡 7821143
撿 7821143
陋 7820590
鞍 7809851
衍 7808827
朦 7797723
窄 7797688
婉 7785259
眯 7772181
拷 7738730
迭 7727393
耽 7716270
禅 7708947
禪 7708947
蛙 7703503
绸 7690440
綢 7690440
甸 7687367
拐 7625914
柺 7625914
摧 7618932
髓 7601191
煮 7597942
嘎 7597415
娶 7573282
睐 7571952
睞 7571952
蜘 7560273
鸽 7559779
鴿 7559779
唔 7550035
哄 7536909
鬨 7536909
葱 7529073
蔥 7529073
崖 7528667
巢 7522840
滔 7509747
氯 7507179
汪 7486700
寨 7466237
斩 7464383
斬 7464383
盔 7457066
趟 7452786
栈 7440138
棧 7440138
舱 7436873
艙 7436873
窍 7434334
竅 7434334
蔓 7428383
嫉 7413569
寡 7411161
芽 7405840
棚 7404233
淮 7398723
胧 7382849
朧 7382849
椎 7382348
乒 7338628
藤 7329330
梭 7326000
汹 7303444
洶 7303444
坑 7302805
熬 7302448
舅 7301208
涤 7266673
滌 7266673
丘 7228312
丐 7222156
旱 7218301
瑜 7198962
矢 7189808
枉 7177293
挚 7166742
摯 7166742
黯 7122966
荧 7121137
熒 7121137
竖 7089627
豎 7089627
暇 7084516
嫂 7074324
旷 7073475
曠 7073475
驿 7072128
驛 7072128
钩 7059495
鉤 7059495
诧 7049115
詫 7049115
宛 7037430
蚊 7036040
篷 7031088
焚 7010265
诵 7005300
誦 7005300
锂 6986951
鋰 6986951
烘 6980865
愕 6967550
拌 6966152
碱 6964180
鹼 6964180
淑 6963666
辕 6954556
轅 6954556
缀 6920333
綴 6920333
漓 6902583
灕 6902583
瘾 6901056
癮 6901056
呕 6892790
嘔 6892790
瞎 6886761
缔 6881472
締 6881472
妞 6859360
捆 6853618
拢 6806687
攏 6806687
叨 6805879
顷 6802391
頃 6802391
喂 6791834
餵 6791834
壶 6784719
壺 6784719
胳 6761333
醋 6755563
妃 6744615
搂 6737991
摟 6737991
菊 6728254
淄 6702306
菇 6699811
坪 6691690
叭 6675013
蝎 6670444
蠍 6670444
逮 6662541
潢 6657275
瀑 6652869
澜 6642644
瀾 6642644
哨 6621795
缚 6604774
縛 6604774
涡 6582925
渦 6582925
帜 6580176
幟 6580176
曰 6572849
苑 6569388
橱 6562545
櫥 6562545
弘 6554536
缕 6541560
縷 6541560
耍 6516813
搁 6503398
擱 6503398
徊 6503280
徘 6503277
怯 6487404
敛 6485424
斂 6485424
刮 6467637
颳 6467637
朽 6462365
舶 6454053
膊 6451130
爪 6450080
弧 6436194
枢 6433071
樞 6433071
蔚 6426015
俘 6394873
蹄 6391429
呐 6386811
吶 6386811
萃 6385385
淹 6379692
聆 6374410
狡 6369757
薯 6358025
苯 6327832
贱 6323690
賤 6323690
仑 6310482
侖 6310482
崙 6310482
挛 6309894
攣 6309894
梗 6302701
陛 6296078
绯 6280073
緋 6280073
呻 6277730
佐 6261928
闽 6261907
閩 6261907
筝 6259190
箏 6259190
眷 6250955
揽 6239310
攬 6239310
婷 6233962
伞 6217376
傘 6217376
艘 6211847
钞 6198151
鈔 6198151
暧 6191265
曖 6191265
柠 6188484
檸 6188484
檬 6188484
痉 6182746
痙 6182746
遏 6172546
趴 6154473
驴 6148965
驢 6148965
睫 6127911
韧 6118071
韌 6118071
槛 6104158
檻 6104158
疚 6103841
馒 6099854
饅 6099854
澄 6093398
疡 6087154
瘍 6087154
煞 6082862
捞 6080677
撈 6080677
兮 6075429
乍 6071590
灼 6047405
喀 6045890
诅 6020560
詛 6020560
鹏 6004821
鵬 6004821
捣 5995500
搗 5995500
觅 5987280
覓 5987280
铅 5984727
鉛 5984727
傍 5965688
隧 5958557
蓦 5949481
驀 5949481
囚 5943305
磷 5943101
澈 5934826
疣 5905116
猩 5902003
咧 5892322
绚 5888107
絢 5888107
彷 5883203
臀 5874280
蹦 5865376
飙 5855678
飆 5855678
栗 5855319
慄 5855319
吾 5851402
烹 5809844
膛 5805562
缉 5803263
緝 5803263
颓 5802963
頹 5802963
瞻 5788091
萤 5760904
螢 5760904
殷 5748611
侈 5736887
噩 5719746
芜 5716323
蕪 5716323
瞩 5705514
矚 5705514
痘 5705394
晌 5705180
笛 5698985
豹 5698348
僻 5688646
沐 5679983
兹 5662882
茲 5662882
崭 5655086
嶄 5655086
毙 5646607
斃 5646607
橙 5646152
咯 5620442
乓 5617385
梨 5615227
拭 5595233
眶 5576617
簧 5572644
悚 5571001
抒 5556176
葫 5515899
泻 5503947
瀉 5503947
豁 5501348
瓣 5500360
寥 5497564
潍 5487751
濰 5487751
珑 5469980
瓏 5469980
硝 5458841
酵 5452711
慷 5452274
魁 5429771
妩 5424166
嫵 5424166
哇 5412544
孟 5394051
氢 5384048
氫 5384048
绞 5378868
絞 5378868
缤 5375070
繽 5375070
蜀 5373903
拱 5369130
籁 5362857
籟 5362857
莓 5355547
捂 5351989
蹲 5321993
窟 5317026
坎 5314488
芭 5297714
蠕 5288264
凳 5278141
琢 5265806
殴 5262875
毆 5262875
酝 5262397
醞 5262397
蕉 5260830
霆 5257554
嗽 5255724
姥 5253245
疤 5252069
畔 5248407
咙 5230829
嚨 5230829
筷 5203790
镑 5203191
鎊 5203191
诠 5201890
詮 5201890
噜 5198262
嚕 5198262
酯 5197921
裔 5196482
瑚 5195346
兜 5183909
糙 5178655
萌 5174427
胺 5172579
桩 5162495
樁 5162495
绰 5152264
綽 5152264
倩 5151905
髅 5133760
髏 5133760
潭 5133665
贮 5130615
貯 5130615
饺 5109432
餃 5109432
霹 5107687
咸 5106465
鹹 5106465
瞥 5099535
秤 5098254
骷 5094679
秉 5083215
飓 5072180
颶 5072180
绅 5056284
紳 5056284
矫 5044868
矯 5044868
麟 5041722
靡 5017666
煎 5017523
惭 5014951
慚 5014951
雳 5014470
靂 5014470
厮 5011072
廝 5011072
荆 5007947
荊 5007947
橘 4999942
倘 4995779
昭 4992153
狈 4985732
狽 4985732
嘀 4975633
熔 4969614
嗜 4967956
蔑 4967063
衊 4967063
贾 4965513
賈 4965513
熄 4955878
迄 4944747
窜 4943405
竄 4943405
闸 4938753
閘 4938753
拂 4926854
嗦 4924994
沂 4923403
棕 4913084
逾 4905632
谴 4897803
譴 4897803
吕 4883644
呂 4883644
疱 4874125
皰 4874125
沥 4873414
瀝 4873414
渣 4873131
轧 4862337
軋 4862337
韦 4857926
韋 4857926
沮 4855291
躬 4849907
渲 4849863
蝇 4849101
蠅 4849101
斧 4832236
眩 4829038
钙 4813605
鈣 4813605
凛 4780220
凜 4780220
葵 4778148
锤 4775998
錘 4775998
讳 4773928
諱 4773928
侄 4770187
坟 4760379
墳 4760379
皂 4751014
皁 4751014
栅 4750466
柵 4750466
巅 4732235
巔 4732235
榴 4723379
耿 4718356
蚕 4703203
蠶 4703203
廓 4700482
秃 4695621
禿 4695621
凹 4695427
粥 4685734
咚 4683890
熏 4676566
薰 4676566
燻 4676566
翘 4674485
翹 4674485
犀 4673977
煽 4669985
拇 4660655
兢 4658873
曙 4644616
磋 4636868
绷 4631225
繃 4631225
琉 4624822
沼 4598239
侃 4588197
贬 4562098
貶 4562098
琪 4550713
婪 4549976
菠 4545030
褐 4542931
裳 4536449
陀 4536031
佑 4533387
恕 4530408
榄 4519962
欖 4519962
靖 4518044
堤 4514218
吱 4484281
坤 4475848
肇 4465886
嬉 4465425
狙 4464027
窒 4454647
浇 4453073
澆 4453073
溺 4450261
桐 4445259
矶 4432029
磯 4432029
襟 4429007
谤 4426366
謗 4426366
畴 4419853
疇 4419853
肋 4419622
醛 4389783
沌 4383505
陡 4381987
蒜 4379973
邯 4375676
驼 4370827
駝 4370827
魏 4368084
聋 4364862
聾 4364862
黛 4361250
镶 4358614
鑲 4358614
荟 4351215
薈 4351215
瑕 4343793
譬 4341600
暮 4339055
庐 4336147
廬 4336147
怡 4315505
伽 4313455
肴 4303441
餚 4303441
敷 4293364
噬 4284269
橄 4254135
莽 4245702
颂 4238201
頌 4238201
嘶 4237823
梧 4219738
纶 4216871
綸 4216871
帷 4210820
砌 4209381
寇 4203894
坝 4201214
壩 4201214
茸 4197125
棘 4193788
巍 4192958
撩 4189210
栓 4184648
髦 4163184
雁 4158044
亨 4152561
翡 4151858
匕 4146111
彬 4139110
诽 4129850
誹 4129850
蒋 4125306
蔣 4125306
稣 4124170
穌 4124170
纬 4120287
緯 4120287
紊 4119268
匈 4106605
劈 4105886
麒 4105873
淌 4091024
扳 4081266
赂 4064098
賂 4064098
蜗 4049560
蝸 4049560
僚 4030094
倏 4028868
狞 4026126
獰 4026126
缅 4026045
緬 4026045
姜 4016456
薑 4016456
俭 4011328
儉 4011328
憧 4006724
拙 3988858
鲍 3987758
鮑 3987758
锣 3970401
鑼 3970401
畸 3962138
昼 3961549
晝 3961549
杠 3953346
槓 3953346
卿 3953179
粪 3943151
糞 3943151
栖 3933102
棲 3933102
炽 3924694
熾 3924694
惚 3919954
苟 3919469
膳 3917698
鸳 3902078
鴛 3902078
鸯 3902075
鴦 3902075
嚼 3894076
郸 3891467
鄲 3891467
潘 3882475
悴 3870933
憔 3870931
萍 3868349
倚 3866925
苛 3863790
踊 3860048
唆 3858599
懊 3849431
帧 3848832
幀 3848832
枣 3848614
棗 3848614
袱 3844591
吝 3843552
祛 3837007
懦 3836810
垮 3832573
哺 3825332
澎 3822044
唑 3819650
抉 3812878
怠 3810695
憬 3802081
擂 3799243
溅 3789778
濺 3789778
嗡 3778134
浊 3749280
濁 3749280
羁 3748222
羈 3748222
靴 3747920
擒 3746252
悸 3742104
揣 3740185
灶 3735058
竈 3735058
夭 3730252
瑶 3726310
瑤 3726310
啧 3726095
嘖 3726095
唾 3725368
棺 3712373
咆 3706919
慑 3703633
懾 3703633
溯 3701269
孜 3695054
嫖 3688774
炬 3685006
菁 3677461
峨 3659269
俺 3658915
柿 3649572
颅 3649153
顱 3649153
漳 3640009
鲨 3637651
鯊 3637651
邂 3634298
逅 3634298
幢 3631997
啼 3627640
钝 3627469
鈍 3627469
霓 3625540
嗷 3611580
亵 3608001
褻 3608001
荫 3606933
蔭 3606933
廕 3606933
啪 3606843
咔 3606372
锌 3599018
鋅 3599018
杖 3598652
悼 3598320
戮 3595110
婿 3583777
歼 3574143
殲 3574143
茵 3562702
唠 3557014
嘮 3557014
缭 3548806
繚 3548806
衅 3546547
釁 3546547
猾 3537970
虏 3537405
虜 3537405
痹 3534261
扼 3530958
酥 3529061
弈 3522328
盎 3510020
栩 3482730
霎 3481224
嘘 3470687
噓 3470687
漾 3462828
揪 3461184
墟 3458224
跋 3456375
卒 3445516
倔 3444191
褪 3441792
禧 3440967
氟 3437833
蒲 3422670
惘 3414984
冕 3412763
佼 3403048
诫 3395394
誡 3395394
磐 3387886
雌 3378923
骏 3369461
駿 3369461
庚 3365261
雏 3362015
雛 3362015
汛 3357598
撇 3357554
涕 3357386
鳄 3354698
鱷 3354698
曳 3346758
酮 3344231
淇 3343673
亩 3335912
畝 3335912
瘩 3331248
疙 3331248
兀 3330689
禺 3328049
璀 3319994
钠 3309947
鈉 3309947
忖 3308671
笋 3305404
筍 3305404
逞 3298551
钦 3296243
欽 3296243
琶 3293745
怅 3288656
悵 3288656
忿 3281948
掷 3280797
擲 3280797
谬 3276634
謬 3276634
哆 3274892
屉 3267649
屜 3267649
蘑 3266599
崎 3264407
咋 3262001
邃 3258164
侥 3254270
僥 3254270
鹤 3253950
鶴 3253950
嗅 3248616
孵 3244372
涟 3237444
漣 3237444
豚 3231717
憨 3230837
瞳 3215276
蔷 3213791
薔 3213791
牟 3209863
蜻 3205437
眺 3204536
赎 3192557
贖 3192557
烽 3190256
烙 3189670
胰 3189360
曹 3177076
藻 3175854
螂 3173887
悯 3173304
憫 3173304
惰 3173086
濒 3168651
瀕 3168651
桔 3162562
镯 3157306
鐲 3157306
锯 3155066
鋸 3155066
祀 3143069
妊 3142424
娠 3142424
娟 3140775
梢 3130820
垢 3129728
亥 3129523
蜓 3128249
焕 3124607
煥 3124607
辙 3123293
轍 3123293
磅 3116338
惬 3115938
愜 3115938
挠 3115584
撓 3115584
骆 3113844
駱 3113844
虔 3108586
讪 3108388
訕 3108388
酋 3100442
暨 3100417
榨 3100137
挟 3098335
挾 3098335
凋 3095516
仕 3092969
猖 3088835
驯 3085816
馴 3085816
羯 3084975
遐 3083247
渎 3080203
瀆 3080203
竿 3079531
酌 3069689
栋 3067636
棟 3067636
晖 3066938
暉 3066938
琼 3059188
瓊 3059188
璨 3048687
彪 3046317
蝉 3041590
蟬 3041590
厄 3039612
闺 3037056
閨 3037056
琵 3036012
晤 3028746
珀 3027815
哦 3027725
吭 3019893
峙 3015467
窘 3009713
孽 3006447
辗 3004760
輾 3004760
痪 2999880
瘓 2999880
徵 2979468
峭 2977990
坷 2977946
喳 2977494
驭 2976245
馭 2976245
哟 2971218
喲 2971218
岔 2953537
黏 2949651
媲 2948606
唧 2948432
笈 2947353
癫 2942055
癲 2942055
楷 2939054
郭 2932310
棠 2929119
蝠 2928623
蝙 2928623
茨 2915912
蔡 2915419
哽 2913209
焉 2912955
颐 2912758
頤 2912758
讥 2911339
譏 2911339
簇 2911187
霄 2906808
溉 2895310
铲 2892537
鏟 2892537
剷 2892537
酪 2892434
瞅 2888474
剿 2887048
祟 2886601
饪 2880953
飪 2880953
榻 2880753
粕 2877308
憎 2876289
嗯 2875596
炙 2872880
袅 2872115
嫋 2872115
裊 2872115
恬 2863863
骼 2863235
庇 2852642
疵 2852458
胚 2843602
搓 2833860
穹 2832482
叽 2831369
嘰 2831369
嫣 2828571
肛 2827389
袁 2824160
伎 2823188
亟 2821387
烷 2813403
薰 2810241
槟 2807060
檳 2807060
酶 2802064
赘 2801517
贅 2801517
埠 2800727
渤 2798228
螃 2783328
酰 2778847
醯 2778847
咀 2775311
垦 2774777
墾 2774777
弛 2773197
哉 2769029
惺 2766231
刁 2763728
厥 2760814
奄 2760094
忡 2757066
朔 2751549
湃 2736021
禀 2722580
稟 2722580
琥 2720956
鞘 2720799
椭 2714299
橢 2714299
咄 2711797
肮 2710361
骯 2710361
雍 2706533
屯 2703392
郡 2697795
觑 2695229
覷 2695229
嚎 2693994
篡 2685127
鞠 2679828
鹉 2676285
鵡 2676285
鹦 2676285
鸚 2676285
椰 2672844
屿 2658860
嶼 2658860
叱 2654710
沛 2646551
婢 2644764
猥 2643484
脯 2641288
皙 2636045
涅 2632306
冈 2630181
岡 2630181
莺 2627086
鶯 2627086
婶 2611821
嬸 2611821
姗 2595717
姍 2595717
俨 2595618
儼 2595618
狰 2594559
猙 2594559
痞 2590279
赃 2588809
贓 2588809
迦 2587734
旭 2583995
冀 2579883
祠 2578571
绊 2571012
絆 2571012
阎 2567018
閻 2567018
屎 2557930
呱 2554168
惮 2553664
憚 2553664
籽 2552220
肘 2545953
黝 2543632
蕃 2529363
剃 2526302
趾 2516536
丞 2498736
坯 2497211
踉 2496941
跄 2496941
蹌 2496941
喋 2487034
惋 2486025
寅 2483297
忱 2477052
荨 2470970
蕁 2470970
漪 2466505
攒 2464049
攢 2464049
吏 2463708
寐 2458790
衙 2454936
渍 2454276
漬 2454276
弩 2453770
戊 2450786
痊 2449326
敖 2448480
锥 2447953
錐 2447953
圃 2446336
侏 2439573
娥 2438133
喵 2434540
钳 2424417
鉗 2424417
扉 2423194
戌 2422829
哧 2420863
孢 2414265
濮 2411200
懵 2406427
壬 2401179
棱 2394552
陨 2390619
隕 2390619
遂 2386480
迢 2377875
彭 2374380
叩 2373715
楞 2372620
狩 2369871
瀚 2365403
鹃 2363441
鵑 2363441
窑 2360597
窯 2360597
潺 2359264
槐 2358200
蟑 2354624
忏 2354518
懺 2354518
偎 2348013
谛 2345801
諦 2345801
卤 2338311
滷 2338311
鹵 2338311
氮 2333690
惆 2333622
唉 2330350
捍 2328912
蚌 2327854
瘟 2326118
舵 2318626
娼 2318618
蔼 2316887
藹 2316887
掺 2313030
摻 2313030
芹 2307257
忑 2306499
忐 2306499
娴 2300839
嫻 2300839
荔 2298080
妾 2293716
睾 2287767
磺 2282587
跻 2275008
躋 2275008
晦 2273607
蛤 2272021
痤 2270957
柬 2269742
芸 2263959
蕓 2263959
砰 2263129
琅 2261909
吆 2257980
啬 2256321
嗇 2256321
睬 2253730
骸 2245788
淤 2245683
嘈 2243336
淆 2238928
攘 2235977
搐 2234902
邢 2234084
铠 2233180
鎧 2233180
姬 2232658
眈 2231094
炊 2229484
娩 2227344
胭 2226919
榈 2226425
櫚 2226425
嗔 2226097
脐 2223551
臍 2223551
咏 2221583
詠 2221583
癜 2218366
窕 2215289
窈 2215288
茉 2215111
芋 2209612
冉 2204735
漩 2201889
戛 2201464
汲 2193626
镍 2188742
鎳 2188742
馅 2188068
餡 2188068
饵 2174319
餌 2174319
跷 2168065
蹺 2168065
檐 2167384
腑 2166878
芊 2152940
毗 2152881
菏 2150832
俑 2150704
炯 2148750
勺 2147769
辫 2138594
辮 2138594
冗 2136578
谘 2135083
諮 2135083
醚 2132861
徨 2132631
鲤 2132340
鯉 2132340
缪 2130951
繆 2130951
倪 2130383
檀 2129051
梵 2127932
磕 2125585
粽 2122362
糉 2122362
凿 2114100
鑿 2114100
杞 2112797
蹊 2111975
蜒 2108059
殡 2101772
殯 2101772
礁 2100657
箔 2099458
镰 2091511
鐮 2091511
鎌 2091511
咫 2090839
拚 2083627
釜 2083310
惦 2079659
禄 2076625
祿 2076625
斟 2075858
柑 2067912
涎 2067064
骋 2066395
騁 2066395
毡 2065758
氈 2065758
灸 2058992
穗 2057019
繐 2057019
噗 2045724
唬 2042974
糯 2042578
搀 2041995
攙 2041995
癸 2040517
曦 2037197
蜿 2030871
沽 2029916
羔 2029435
瑙 2029170
壑 2023416
殆 2022720
睽 2014698
毋 2008088
矜 2007410
荼 2007393
钧 2005238
鈞 2005238
迸 2003288
熠 2000638
飚 2000120
飈 2000120
桧 1997546
檜 1997546
埔 1996695
皿 1991342
苔 1985553
薹 1985553
躇 1984348
隘 1982207
跆 1981984
缎 1979856
緞 1979856
诏 1977950
詔 1977950
猿 1976461
娓 1975076
殉 1973147
漉 1954003
睦 1952363
迥 1944152
芥 1941201
痿 1940316
钾 1939001
鉀 1939001
锵 1934894
鏘 1934894
奕 1934740
卯 1934623
阑 1933988
闌 1933988
珈 1932658
铣 1930980
銑 1930980
邸 1927412
盏 1927209
盞 1927209
咎 1923418
胱 1920435
钛 1917101
鈦 1917101
踌 1916870
躊 1916870
蹋 1915671
漱 1911802
悻 1908142
鑫 1905161
憋 1904406
蜕 1898608
蛻 1898608
獗 1897220
坍 1893055
翱 1892885
烬 1891623
燼 1891623
蹂 1891355
躏 1891355
躪 1891355
踱 1890124
霖 1881165
蔗 1877702
睿 1877629
匮 1872566
匱 1872566
圭 1872066
淳 1871121
糜 1870054
脓 1867563
膿 1867563
纫 1867508
紉 1867508
瞠 1865810
鹊 1861209
鵲 1861209
冯 1859972
馮 1859972
殃 1852157
篆 1850291
簸 1833843
赦 1830374
羚 1825448
娆 1825208
嬈 1825208
偕 1823258
甫 1813895
痫 1812530
癇 1812530
萦 1810905
縈 1810905
斓 1809678
斕 1809678
偌 1807925
枭 1807204
梟 1807204
粟 1804349
樟 1804186
鲸 1796860
鯨 1796860
吮 1788841
嚓 1788840
嬷 1787627
嬤 1787627
稼 1787406
阪 1787196
屹 1785729
恙 1785601
拎 1784447
烩 1783728
燴 1783728
扒 1783599
甄 1780653
酉 1780627
镁 1774401
鎂 1774401
蛾 1768790
蟆 1767684
踵 1766821
囱 1754426
囪 1754426
秸 1753067
酚 1752224
枸 1750818
痰 1748970
猝 1742944
诬 1742025
誣 1742025
诣 1736136
詣 1736136
斌 1735487
隋 1733992
咛 1732418
嚀 1732418
腮 1732332
遨 1730838
鱿 1721595
魷 1721595
撮 1716956
彤 1709907
囔 1708409
郅 1701841
耘 1701260
郴 1698915
俐 1696542
憩 1684921
腋 1684637
辄 1684620
輒 1684620
簌 1682182
掐 1673509
迂 1668917
恤 1650477
卹 1650477
巳 1648981
骡 1648352
騾 1648352
哝 1642167
噥 1642167
怦 1641588
谭 1640646
譚 1640646
寰 1637794
蜷 1635342
褥 1634316
嗤 1630036
嚏 1629456
辍 1627922
輟 1627922
慵 1627733
笃 1623993
篤 1623993
铛 1619296
鐺 1619296
褒 1617698
瞰 1616635
苇 1600531
葦 1600531
貂 1596667
腼 1595716
靦 1595716
腆 1595713
谧 1593416
謐 1593416
渝 1587811
铆 1587192
鉚 1587192
悖 1586890
斐 1575713
瞌 1575640
稠 1574781
洼 1573502
窪 1573502
囡 1564994
猬 1564123
蝟 1564123
儡 1561975
傀 1561975
浒 1560483
滸 1560483
揖 1555813
踝 1548404
抨 1547967
嫦 1543399
摒 1540751
翌 1536750
篱 1534374
籬 1534374
颔 1534302
頷 1534302
札 1531517
蛊 1526822
蠱 1526822
喔 1519460
蚤 1518249
诲 1517542
誨 1517542
褂 1517447
袒 1508936
缥 1504939
縹 1504939
摹 1499804
峦 1498781
巒 1498781
霏 1495208
矗 1491088
榕 1487599
跺 1485895
捺 1484224
靶 1482578
拽 1476822
昊 1476563
昙 1476441
曇 1476441
锢 1472255
錮 1472255
榔 1471319
伫 1470528
佇 1470528
彝 1468243
娲 1467805
媧 1467805
燎 1465808
蔻 1465413
虞 1462204
伶 1461746
膺 1461157
霾 1461007
嵋 1460900
窦 1460827
竇 1460827
篝 1459471
秧 1458741
犷 1457775
獷 1457775
鸥 1456823
鷗 1456823
庶 1456515
钗 1456223
釵 1456223
嗒 1456153
跤 1455087
鬟 1450703
鬓 1448099
鬢 1448099
詹 1447973
恪 1445304
抿 1443237
缈 1440295
緲 1440295
蟒 1436070
韭 1432872
枷 1423209
踞 1422922
柚 1421632
绮 1421517
綺 1421517
彗 1421374
藩 1416321
皓 1412815
硒 1410558
暄 1403158
冽 1399964
愫 1395825
拗 1395466
酣 1392671
铮 1392373
錚 1392373
搪 1391514
缮 1388436
繕 1388436
蝗 1387329
戳 1382746
璋 1381545
馏 1378132
餾 1378132
沁 1370451
岖 1368928
嶇 1368928
搔 1365671
亘 1365177
亙 1365177
蜥 1363475
徙 1362672
磊 1360988
幌 1360454
缰 1360116
繮 1360116
瞟 1358060
铐 1355176
銬 1355176
魇 1349325
魘 1349325
铿 1348145
鏗 1348145
莘 1347710
罡 1347133
飒 1346721
颯 1346721
蹑 1343813
躡 1343813
皎 1343652
茗 1342216
龊 1338563
齪 1338563
龌 1338563
齷 1338563
谚 1337029
諺 1337029
讷 1335806
訥 1335806
锄 1332278
鋤 1332278
筐 1330272
羲 1329655
岌 1329280
窿 1328250
汩 1322502
岚 1321112
嵐 1321112
臆 1318366
璜 1317611
鹭 1317336
鷺 1317336
麓 1316428
匣 1311284
扛 1311171
蕊 1311064
恃 1309473
飕 1308038
颼 1308038
麾 1305767
雯 1304768
蚩 1301777
嵩 1295425
罹 1285234
惴 1282364
蜴 1279522
遁 1278219
匡 1277885
腌 1277534
醃 1277534
湮 1277253
酗 1277058
癖 1271923
礴 1268337
胴 1266117
楠 1264806
豌 1257961
莅 1254762
蒞 1254762
瘪 1252280
癟 1252280
甥 1251528
夯 1250351
褶 1248271
馁 1247633
餒 1247633
剽 1246692
蜈 1244953
匾 1244570
袂 1236657
宕 1235052
谙 1231238
諳 1231238
佬 1231098
咤 1229942
吒 1229942
萱 1229586
诃 1228786
訶 1228786
竺 1226426
舜 1226049
咿 1223346
唏 1221837
瀛 1220400
痔 1219524
淅 1218609
佯 1216932
矣 1216842
诙 1211260
詼 1211260
楣 1204990
撬 1200562
倭 1193688
轼 1191473
軾 1191473
抠 1190658
摳 1190658
恣 1189051
楔 1188923
涓 1187930
祺 1185818
泞 1185662
濘 1185662
晾 1181820
睨 1181291
砾 1179128
礫 1179128
瘀 1177542
绢 1174235
絹 1174235
锚 1172656
錨 1172656
桦 1171721
樺 1171721
榭 1171198
崽 1170399
舔 1158620
刨 1158558
蚣 1156168
炕 1155921
岑 1153884
窖 1149427
觊 1143936
覬 1143936
觎 1143936
覦 1143936
睑 1140297
瞼 1140297
婊 1138953
滁 1138198
咻 1137796
娑 1136580
夥 1131469
煲 1126026
涸 1122217
宦 1122039
徇 1121806
荞 1121341
蕎 1121341
馋 1115411
饞 1115411
纭 1112506
紜 1112506
璇 1106962
啜 1106945
嗨 1102092
铂 1101100
鉑 1101100
恻 1100482
惻 1100482
漕 1099471
楂 1094074
蹭 1093491
缄 1092916
緘 1092916
跚 1090574
蹒 1090574
蹣 1090574
掂 1089508
囤 1089041
玷 1088180
茧 1084357
繭 1084357
撷 1083478
擷 1083478
黠 1079765
怂 1077662
慫 1077662
恿 1077662
蚓 1075681
蚯 1075674
阂 1075415
閡 1075415
沓 1069261
呓 1068935
囈 1068935
蹙 1068596
帚 1066288
帼 1065608
幗 1065608
粱 1065190
栀 1059702
梔 1059702
铬 1057526
鉻 1057526
谑 1056685
謔 1056685
瞭 1056099
旌 1055666
鲫 1054821
鯽 1054821
炖 1054170
燉 1054170
崂 1053439
嶗 1053439
饕 1051151
涝 1048871
澇 1048871
轶 1048511
軼 1048511
洱 1047720
茱 1046469
泸 1045828
瀘 1045828
颌 1045558
頜 1045558
秆 1044042
稈 1044042
熨 1038524
禾 1037061
蛀 1034350
戎 1034346
孪 1034314
孿 1034314
瘙 1031090
孚 1030123
锏 1029618
鐧 1029618
禹 1028707
拣 1027701
揀 1027701
碾 1025400
茁 1020573
啃 1020250
祯 1019456
禎 1019456
粳 1018461
醺 1017694
猕 1014439
獼 1014439
樵 1014151
鼾 1009328
耦 1007095
垠 1005592
奎 1004547
玺 1003618
璽 1003618
噎 1003514
赣 1000587
贛 1000587
崔 998613
鄂 996834
蛰 995945
蟄 995945
喱 992779
蟠 990950
榆 986010
臃 985031
诋 981057
詆 981057
戾 980306
碁 979267
隅 978947
饽 978490
餑 978490
驹 965717
駒 965717
噱 964462
邋 963457
遢 963457
雹 963278
嗬 962750
颚 961319
顎 961319
镂 956844
鏤 956844
葆 956616
锰 951131
錳 951131
潦 950789
箴 950592
孺 946362
芍 945728
婵 942944
嬋 942944
墩 942934
餮 941728
噤 941403
藐 941128
涣 940696
渙 940696
袄 939236
襖 939236
藕 939208
笆 937203
汀 935480
扈 935334
稷 933247
襄 932270
焙 931065
羹 930944
瑄 930743
嗖 930084
臻 929963
谩 929229
謾 929229
缜 927903
縝 927903
婀 927040
壕 926257
啶 925295
赡 923229
贍 923229
靥 923060
靨 923060
皑 922340
皚 922340
吒 921201
胯 920295
镭 918981
鐳 918981
嘤 918072
嚶 918072
隽 917692
雋 917692
攥 916828
涮 916599
氰 916492
笺 914936
箋 914936
龈 914462
齦 914462
骰 911080
吠 910042
纂 909932
蛟 907831
罂 907168
罌 907168
薏 905205
裆 904856
襠 904856
脍 903875
膾 903875
挎 900194
羟 900119
羥 900119
螳 899829
鄞 897180
泱 895084
唰 894652
瘁 894097
蜚 892717
砺 892697
礪 892697
瓢 887689
瘠 886553
诛 884087
誅 884087
邑 883844
怆 883801
愴 883801
恺 883099
愷 883099
沱 881902
驸 875400
駙 875400
玑 875157
璣 875157
榷 871651
茬 871616
瘸 871431
蓓 870892
檗 870886
桓 866140
饯 863910
餞 863910
帛 863372
徜 859531
徉 859529
蹬 857645
狄 855830
掬 851848
苞 847072
砝 846308
陇 844640
隴 844640
骁 842565
驍 842565
甬 842242
擞 842207
擻 842207
蜃 841468
臾 839865
獠 838352
姣 837362
匍 836678
匐 836677
芷 835412
幄 830874
滇 830725
呸 830363
踹 830234
嗣 828325
鸵 826225
鴕 826225
诩 825711
詡 825711
嘹 825633
珞 823461
嗫 823329
囁 823329
嚅 823329
鳅 822923
鰍 822923
阜 822494
旎 821282
旖 821282
浜 819162
绫 816676
綾 816676
煦 816236
饨 811398
飩 811398
馄 811398
餛 811398
遴 804845
涔 803721
蝈 803642
蟈 803642
筏 802050
贻 801837
貽 801837
掣 801722
獒 797077
舷 795567
钨 793571
鎢 793571
梆 793490
麝 786957
隍 786120
淼 782994
苓 780264
弋 780132
叼 778901
烃 776684
烴 776684
杷 776039
枇 776038
辊 776022
輥 776022
鳗 774972
鰻 774972
粼 774140
芪 772371
橇 771670
汝 769802
傣 769472
桀 768606
骜 768601
驁 768601
皈 767763
阉 765404
閹 765404
笙 764614
尹 764089
袤 763153
碉 761086
笠 761024
蟋 757776
蟀 757776
痢 755312
佗 755009
衲 754854
谕 754501
諭 754501
氤 753900
氲 753900
氳 753900
掰 753876
鳌 753382
鰲 753382
锭 753334
錠 753334
糗 747699
撂 745883
哒 744048
噠 744048
咩 743004
硼 737976
筵 737391
啾 735692
铵 735034
銨 735034
谆 733018
諄 733018
砧 731613
峥 726070
崢 726070
嵘 726069
嶸 726069
湍 725798
嫡 723178
迳 722991
逕 722991
粑 722808
皖 720876
挲 716610
聂 716443
聶 716443
箩 716315
籮 716315
闵 713769
閔 713769
鄱 713749
鳝 712590
鱔 712590
莠 711145
刽 710744
劊 710744
拮 707748
腴 698246
铰 697210
鉸 697210
鏖 696506
荤 694606
葷 694606
肽 693519
掳 692633
擄 692633
拧 691519
擰 691519
阙 689203
闕 689203
涧 688224
澗 688224
蚪 686991
蝌 686991
徕 684335
徠 684335
啄 684230
牦 683254
氂 683254
豺 679306
薛 679213
茯 677779
苷 676544
碘 676004
呛 675220
嗆 675220
泯 675067
盂 673606
簪 671584
挝 670118
撾 670118
劾 669247
浣 666696
姚 666306
偻 665143
僂 665143
臼 663582
纣 663182
紂 663182
赈 662388
賑 662388
嗲 661154
茜 660119
炳 659291
狒 658936
釉 658503
犊 657781
犢 657781
奚 656588
熹 651757
啕 650774
啻 648792
蛐 648266
迩 647440
邇 647440
淙 646206
谄 645967
諂 645967
尧 644571
堯 644571
茴 644177
璞 641151
疽 639288
桨 638824
槳 638824
讹 636798
訛 636798
攸 636767
葩 635783
耷 635609
嶙 635460
峋 635456
汾 635178
谲 633853
譎 633853
腈 633853
镳 630864
鑣 630864
揄 629349
揶 629349
瘴 628788
锲 628074
鍥 628074
懿 627978
矽 626748
裴 626653
潸 625484
噻 625375
芡 625246
萋 623038
濡 622916
捶 622351
爻 621862
佝 620542
毂 618994
轂 618994
琛 617494
邵 617118
蹴 616680
璧 616393
挞 616172
撻 616172
汐 614860
髻 613384
杳 612659
褛 609522
褸 609522
褴 609522
襤 609522
岷 608952
恸 608533
慟 608533
蒿 607996
滕 607837
钵 607494
鉢 607494
鸪 607257
鴣 607257
鹧 607257
鷓 607257
庵 605220
菴 605220
蚱 604896
赧 604576
牒 603207
崆 600566
峒 600566
鸨 597174
鴇 597174
怏 596178
砥 595176
陲 592439
蹩 592302
咣 591675
罄 590940
蟾 590884
犁 589092
噼 588974
韶 588955
镌 583289
鐫 583289
骥 582678
驥 582678
淖 582340
羌 581788
谏 581566
諫 581566
哩 580919
疸 580648
讧 579063
訌 579063
拈 578436
夙 577435
龇 577188
齜 577188
侗 576503
藓 575589
蘚 575589
捎 571312
斡 571052
辘 568574
轆 568574
蛎 568176
蠣 568176
梓 567391
碴 567141
箫 566834
簫 566834
槿 566826
迤 566597
渭 566175
汴 563675
苜 563225
蓿 563225
攫 563195
嗝 562482
瞑 561966
奘 560344
邱 555144
喽 554943
嘍 554943
撅 554030
楹 553634
拄 553371
颧 552374
顴 552374
褓 551755
裟 549523
袈 549523
犒 549096
盹 548777
黔 547483
蹶 547179
喟 545815
氙 545126
噙 542619
湄 542506
呦 541682
觐 540107
覲 540107
桎 539433
梏 539433
佘 539164
衩 538329
椿 537129
篑 537030
簣 537030
鹑 536855
鶉 536855
鹌 536847
鵪 536847
癞 536318
癩 536318
逵 535150
诿 534828
諉 534828
胫 532274
脛 532274
糠 532117
嫔 531940
嬪 531940
佻 528700
鹫 528052
鷲 528052
鳍 525875
鰭 525875
偃 524116
遛 519851
蹉 519613
跎 519613
腩 519462
钣 517651
鈑 517651
籼 516677
秈 516677
鞑 516508
韃 516508
诟 515658
詬 515658
赊 515249
賒 515249
罔 515173
韬 507969
韜 507969
恹 506430
懨 506430
塾 506371
殇 504928
殤 504928
渥 504654
龛 502359
龕 502359
莴 500500
萵 500500
昱 500083
铤 499629
鋌 499629
砚 499001
硯 499001
浃 497202
浹 497202
妪 496527
嫗 496527
疟 496160
瘧 496160
裘 494566
盥 494043
踮 493698
胄 493429
箍 493366
赳 493208
骠 490896
驃 490896
荠 489002
薺 489002
衮 488912
袞 488912
饷 486849
餉 486849
襁 485004
诘 484944
詰 484944
孰 482175
胛 480981
桅 480336
炔 478475
篓 478144
簍 478144
麸 477403
麩 477403
纰 471741
紕 471741
旯 470679
旮 470679
酊 470064
跛 469477
孱 468583
霭 467733
靄 467733
祉 465355
馍 464933
饃 464933
铀 463103
鈾 463103
镣 462572
鐐 462572
佰 462111
虱 460195
蝨 460195
垣 459941
扪 459243
捫 459243
缱 458911
繾 458911
绻 458911
綣 458911
蛔 456936
俸 456821
埂 456226
栾 455897
欒 455897
棂 454519
欞 454519
秫 453573
啷 451614
泠 451177
讴 451073
謳 451073
邈 449635
厩 448635
廄 448635
懑 448247
懣 448247
刎 447809
裨 446511
谒 441440
謁 441440
淬 438208
鸠 437595
鳩 437595
锹 436159
鍬 436159
妲 435247
驮 434442
馱 434442
蚝 433820
蠔 433820
臊 432648
犄 431456
锆 430282
鋯 430282
蜍 429895
赝 429474
贗 429474
嘧 427532
豉 427188
溥 424732
裱 421461
闰 421269
閏 421269
镊 421113
鑷 421113
龋 419529
齲 419529
噔 418592
芎 417777
辎 417162
輜 417162
鬃 415108
螓 415018
鲑 413697
鮭 413697
戍 413629
钊 413502
釗 413502
滂 412257
瑾 409426
镗 408554
鏜 408554
刍 405794
芻 405794
彦 402062
彥 402062
俚 401428
藿 401218
葺 400164
遽 399463
吡 398045
唁 397843
颀 397268
頎 397268
鲈 394428
鱸 394428
湎 393604
稞 393486
瓮 393276
甕 393276
晏 393118
瑛 391062
忪 391049
胤 390164
槌 389984
铢 386206
銖 386206
睥 385140
揍 385075
酩 382854
赅 382513
賅 382513
蕨 382240
趄 382224
趔 382224
呋 381870
仄 381801
璐 381673
悱 381420
稔 380744
叟 380334
钼 378275
鉬 378275
敝 378205
烊 377747
堑 377158
塹 377158
獭 375540
獺 375540
魍 375457
魉 375457
魎 375457
鼹 374427
鼴 374427
扦 373367
娉 373362
荀 373271
鸢 372017
鳶 372017
萸 370574
啐 369248
遑 367125
酐 367049
丕 366544
捅 366266
鹂 366062
鸝 366062
聒 364725
腱 362896
魑 362049
糅 361744
诌 361551
謅 361551
畿 361370
咝 360908
噝 360908
邹 359142
鄒 359142
麋 358129
苄 357656
佃 357585
缢 355196
縊 355196
洙 354581
泾 353653
涇 353653
滓 353372
阡 351746
锺 351116
鍾 351116
鲶 350788
鯰 350788
呲 350496
砒 350040
绥 349757
綏 349757
骐 347766
騏 347766
坳 347440
浔 346869
潯 346869
舫 346702
茹 345746
靛 344717
堰 344540
璩 343973
苋 343959
莧 343959
柩 343286
逶 342109
垛 341525
痧 340987
掇 340630
愠 340394
慍 340394
浚 339987
菖 339931
髯 339297
虬 339295
虯 339295
矸 339231
嘭 337800
茏 337661
蘢 337661
醐 337608
醍 337608
嬴 336204
璎 334960
瓔 334960
唢 334817
嗩 334817
栉 334241
櫛 334241
碣 333566
蚜 331866
摈 330690
擯 330690
瘢 329861
馗 328981
蛭 327764
俪 326998
儷 326998
伉 326997
麂 325834
坂 325423
阪 325423
忸 325066
怩 325066
弭 324356
孳 324128
胥 323845
唷 322852
芩 322802
倨 322504
姹 322313
奼 322313
糨 321966
忾 321526
愾 321526
岐 320770
珐 319011
琺 319011
蝼 318389
螻 318389
啮 318230
齧 318230
犸 317785
獁 317785
珲 317425
琿 317425
捱 317248
剁 317072
墉 316421
泫 314802
痼 314391
孀 314072
戬 314052
戩 314052
螨 313946
蟎 313946
饴 313408
飴 313408
荏 312181
恫 311539
钰 311344
鈺 311344
翎 311116
趵 310909
蠡 309878
渖 309537
瀋 309537
馥 309439
媾 309350
唳 305751
囫 305564
囵 305564
圇 305564
绌 305338
絀 305338
囿 305208
杈 304644
馊 304580
餿 304580
筱 304482
殒 304076
殞 304076
呤 303996
嘌 303996
鳖 303856
鱉 303856
矾 303819
礬 303819
绉 302204
縐 302204
宸 299840
戟 299501
耙 299062
廖 298847
缨 298654
纓 298654
曜 297950
嶂 295467
樨 293696
阈 291437
閾 291437
炜 289852
煒 289852
桠 289786
椏 289786
愎 289580
毽 289424
玮 288569
瑋 288569
擘 288513
拴 288137
鞣 287525
孬 287163
疝 286564
庖 285879
羧 285667
衿 285622
鲲 285618
鯤 285618
钡 284400
鋇 284400
琦 282677
肓 282522
秭 282314
椹 281317
嬗 278804
蜊 278700
骊 276349
驪 276349
镉 275407
鎘 275407
筠 275083
鳕 274889
鱈 274889
幡 274483
苎 273633
逡 272951
铎 272706
鐸 272706
樊 272596
痣 272314
匝 270526
傥 269488
儻 269488
倜 269487
弑 269196
弒 269196
郜 269025
苣 268929
瞿 268081
闩 267845
閂 267845
痍 267422
豢 266620
甙 265724
倌 264811
潋 264243
瀲 264243
滟 264243
灩 264243
鲟 263909
鱘 263909
瓴 263591
鳟 262916
鱒 262916
龚 262631
龔 262631
舐 262534
铧 261886
鏵 261886
煅 260682
垩 259818
堊 259818
嗪 259798
隼 258942
冢 258601
囹 258478
圄 258478
蜉 258152
聩 257743
聵 257743
箕 257121
貔 257013
貅 257013
蓖 254969
汞 254850
霰 254710
氩 254125
氬 254125
谗 253757
讒 253757
膑 253239
臏 253239
喁 251964
峪 251217
毓 250872
锃 250844
鋥 250844
荸 247364
忤 247194
鲔 245633
鮪 245633
痱 245262
诮 244855
誚 244855
邕 244833
槁 244504
腓 244004
榉 243931
櫸 243931
侪 241772
儕 241772
郝 241489
榛 240311
蒡 240016
暹 239136
鞅 237917
沅 237224
茕 236724
煢 236724
瓯 236242
甌 236242
飨 235766
饗 235766
淞 235484
摺 235131
墒 234827
姘 234443
蜇 233246
秣 233063
颉 232737
頡 232737
靼 232323
牍 231670
牘 231670
钕 231514
釹 231514
藜 230855
蒺 230852
蓑 230598
壹 229985
畲 229837
剌 229148
猢 228958
狲 228956
猻 228956
溴 228955
碜 227794
磣 227794
骛 226815
騖 226815
酡 225692
佞 225626
谡 224503
謖 224503
逦 224488
邐 224488
鲢 224261
鰱 224261
蜢 223478
幔 222374
琏 221241
璉 221241
殚 220623
殫 220623
鎏 219832
戕 219760
汨 218774
侩 217711
儈 217711
蝣 216709
跹 216667
躚 216667
痂 216243
羸 215954
俎 215799
踯 214115
躑 214115
躅 214114
斛 213971
阮 213493
桢 213301
楨 213301
顼 212744
頊 212744
颛 212744
顓 212744
沏 212660
裾 211379
蛳 211306
螄 211306
骞 211233
騫 211233
燮 210776
祜 210252
苒 209792
聿 208526
窨 207652
嗟 207236
仃 207212
蕙 207171
阖 206699
闔 206699
貉 206525
怼 206476
懟 206476
玳 206366
瑁 206366
僳 206048
傈 206048
肄 205932
衢 205384
揩 204648
蕻 203238
屐 203182
箝 202920
讫 202703
訖 202703
钎 202619
釺 202619
讦 201790
訐 201790
轱 199094
軲 199094
凇 198874
胪 198766
臚 198766
焘 198714
燾 198714
闱 198161
闈 198161
撵 197936
攆 197936
鄯 197521
妍 196441
茭 196277
缛 196166
縟 196166
苡 195430
腭 193020
齶 193020
讣 192582
訃 192582
桉 192539
豇 191833
铄 191391
鑠 191391
矍 191381
翕 191082
笞 190865
遒 190861
檄 190701
渚 190513
殄 190200
鸩 189134
鴆 189134
舢 188555
萼 188099
嗥 187161
叵 187096
怄 187072
慪 187072
埚 186250
堝 186250
坩 186250
啉 186199
苁 185570
蓯 185570
喑 185277
孑 185244
蘼 184986
蘖 184943
櫱 184943
桁 184539
锒 184378
鋃 184378
赓 183846
賡 183846
牯 183789
苻 183728
炀 182610
煬 182610
肱 179124
喹 178300
粲 178294
鳜 178184
鱖 178184
椤 177639
欏 177639
桫 177639
芾 177148
髋 176949
髖 176949
噶 176540
荚 176240
莢 176240
黜 176190
橼 176126
櫞 176126
椴 175645
仟 174696
纨 173471
紈 173471
绔 173463
絝 173463
鹞 171874
鷂 171874
崴 171207
岱 170455
娄 169728
婁 169728
谀 169409
諛 169409
儆 169394
佤 169376
圜 169003
娅 168618
婭 168618
钒 168531
釩 168531
鹄 168324
鵠 168324
蛆 168159
醣 167695
嵇 167541
銮 167086
鑾 167086
嵯 166784
誊 166732
謄 166732
掖 166414
耄 165859
耋 165859
嵬 165792
叁 165606
叄 165606
姒 163987
铉 163497
鉉 163497
泔 162232
笳 159837
颦 159570
顰 159570
踟 159386
觥 158959
踽 158620
颍 157559
潁 157559
娈 157530
孌 157530
锉 157108
銼 157108
纥 156631
紇 156631
噘 156281
闾 156098
閭 156098
茼 155152
皲 154997
皸 154997
捻 154862
獐 154675
黢 154530
幺 153066
缫 152391
繅 152391
蔺 151309
藺 151309
柞 151281
荽 150842
芫 150842
咂 150605
晟 149337
阄 149261
鬮 149261
绗 149032
絎 149032
媛 147948
诨 147751
諢 147751
哐 147607
癔 147101
龅 146982
齙 146982
菅 146882
钽 146636
鉭 146636
砭 146543
菟 146221
婕 146190
窠 145973
訇 145892
瘘 144728
瘻 144728
哚 144047
吲 144047
烨 143628
燁 143628
锷 143327
鍔 143327
诂 143103
詁 143103
痨 141589
癆 141589
伥 141534
倀 141534
馐 141310
饈 141310
疥 141191
鬈 141190
轭 140831
軛 140831
汶 140660
荦 140622
犖 140622
雎 140402
砣 139569
唛 139424
嘜 139424
虻 139238
怵 139123
敕 139062
桕 139028
殓 138355
殮 138355
妁 138307
薹 137486
佶 137185
撺 136839
攛 136839
鳏 136768
鰥 136768
忻 136443
掸 136095
撣 136095
葚 136054
蕤 135299
葳 135298
舀 134701
氅 134657
鸾 133633
鸞 133633
菪 133210
莨 133210
妯 132361
娌 132361
弼 132319
珂 131679
贽 131038
贄 131038
耆 129685
楫 129110
蝮 128889
仨 128530
镏 128206
鎦 128206
馑 127502
饉 127502
鸶 127220
鷥 127220
糍 127134
餈 127134
驽 125564
駑 125564
饬 125510
飭 125510
杮 124605
绶 124182
綬 124182
赭 123655
膦 123509
濠 123186
螟 122789
溟 122326
猡 122287
玀 122287
蜮 121748
酢 121292
轳 120956
轤 120956
鹚 120751
鶿 120751
鸬 120751
鸕 120751
艄 120150
嗑 119432
齑 119111
齏 119111
韪 119111
韙 119111
滦 118974
灤 118974
疳 118522
俞 117657
龃 117524
齟 117524
龉 117524
齬 117524
狯 117467
獪 117467
臧 116917
轫 116818
軔 116818
贲 116738
賁 116738
萏 116659
菡 116658
筮 116477
笤 116322
啁 116216
铡 114598
鍘 114598
荪 114490
蓀 114490
蛹 113993
邰 113900
糌 113398
膈 112997
擢 112953
掴 112552
摑 112552
僭 112331
徭 111897
椁 111732
槨 111732
猊 111702
狻 111701
诳 111279
誑 111279
绛 111073
絳 111073
莆 110461
膂 109592
蟊 109433
锱 109413
錙 109413
瀣 108861
沆 108859
缇 108800
緹 108800
庹 108357
蟥 107741
锨 106870
杴 106870
兖 106426
兗 106426
罅 105867
眦 105317
眥 105317
睚 105311
掮 105280
蓊 105262
鹬 104913
鷸 104913
犟 104387
茔 104110
塋 104110
擀 103552
甾 103357
羰 103341
晔 103223
曄 103223
鲮 103131
鯪 103131
黩 103052
黷 103052
芨 103009
觞 102846
觴 102846
悌 102691
诤 101697
諍 101697
锜 101670
錡 101670
珩 101648
谟 100317
謨 100317
鲳 99851
鯧 99851
岿 99466
巋 99466
贰 98383
貳 98383
谪 97854
謫 97854
侬 97555
儂 97555
箜 97476
篌 97476
疴 97415
痾 97415
蚋 97130
潴 96737
瀦 96737
枳 96094
谯 95894
譙 95894
侑 95802
珙 95521
趺 95338
蹿 95277
躥 95277
棣 94550
铼 92649
錸 92649
翟 92536
鲥 92516
鰣 92516
蹰 91908
躕 91908
嗳 91003
噯 91003
瓿 90444
廪 90161
廩 90161
蝥 89766
冼 89652
槎 88561
绦 88454
絛 88454
狍 87830
脲 87639
苕 86706
裢 86597
褳 86597
褡 86597
鹩 85909
鷯 85909
莼 85637
蓴 85637
喙 85445
钯 84240
鈀 84240
盅 83647
晗 83457
泅 83049
虢 83024
蒽 82993
醌 82993
濯 82712
歆 82632
蔫 82450
婧 82079
膻 81661
羶 81661
謇 81256
蓥 80673
鎣 80673
驷 80550
駟 80550
蚧 80537
黍 79704
臬 79574
柘 79411
魈 78776
趿 77646
薜 77030
壅 76898
薮 76789
藪 76789
燧 76541
毖 76460
钴 76176
鈷 76176
醴 76036
晷 76007
穑 75996
穡 75996
歃 75967
鲱 75065
鯡 75065
濂 74720
蛱 74568
蛺 74568
蝰 74518
脔 74119
臠 74119
缁 73309
緇 73309
艿 73307
膘 73294
猞 72719
猁 72719
堇 72306
轲 72261
軻 72261
笕 72244
筧 72244
诰 72172
誥 72172
铍 72166
鈹 72166
靳 72044
缟 70909
縞 70909
捩 69292
氦 68975
蒴 68766
雉 68474
昕 68410
柒 68341
骈 68293
駢 68293
鹕 68261
鶘 68261
鹈 68261
鵜 68261
镞 67970
鏃 67970
仫 67958
鬣 67744
呃 67591
榧 67349
枞 67267
樅 67267
谶 66666
讖 66666
椽 66428
霁 66206
霽 66206
蛏 65510
蟶 65510
哌 65480
螈 65215
蝾 65215
蠑 65215
郦 64107
酈 64107
滹 63985
琨 63849
宥 63739
溱 63251
襞 63093
阋 62794
鬩 62794
翳 62785
揠 62154
菔 61769
悭 61564
慳 61564
拊 61409
妣 61397
桡 60683
橈 60683
囟 60328
佚 60160
鳊 60039
鯿 60039
仡 59626
酞 59548
卟 59225
愀 59209
蛲 59096
蟯 59096
铱 58799
銥 58799
镐 58770
鎬 58770
瓤 58605
泺 58273
濼 58273
屣 58252
琊 58131
寮 57573
孓 56769
氡 56424
鹳 55620
鸛 55620
畚 55052
鲅 55048
鮁 55048
嶷 55022
轾 54847
輊 54847
蛄 54805
佟 54486
肼 52711
潞 52684
餍 51802
饜 51802
伧 50780
傖 50780
谵 50475
譫 50475
鸹 50467
鴰 50467
沩 49733
潙 49733
卞 49175
庾 49138
奁 49010
奩 49010
岬 48286
趸 47613
躉 47613
珉 47548
缂 47158
緙 47158
髫 47135
髭 46993
祼 46797
笊 46268
褫 46064
哔 45941
嗶 45941
俳 45863
诓 45799
誆 45799
镛 45432
鏞 45432
馔 45039
饌 45039
砜 44745
碸 44745
瘌 44611
伛 44601
傴 44601
濑 43965
瀨 43965
杵 43922
炆 43709
玟 43669
螵 42894
蛸 42894
侉 42597
茛 42459
筚 42174
篳 42174
栎 42030
櫟 42030
篦 42000
劭 41885
疖 41472
癤 41472
蚍 41443
敉 41377
垡 41255
矬 41157
蠹 40599
槲 40334
胨 40072
腖 40072
蛞 39724
蝓 39724
嵛 39634
鲡 39112
鱺 39112
髑 39081
鲆 38947
鮃 38947
芘 38265
孥 37962
铳 37865
銃 37865
蜱 37621
鳔 37100
鰾 37100
鼬 37074
笸 36703
檩 36546
檁 36546
砷 36331
碓 36039
骅 35881
驊 35881
髂 35842
帔 35683
逋 35664
舨 35404
碛 35192
磧 35192
柽 34961
檉 34961
疔 34914
鏸 34710
稗 34640
篼 34395
杼 34322
淦 33825
蛉 33531
凫 20
鳧 20
豕 20
蹇 19
翥 16
鬻 16
鸱 15
鴟 15
屦 14
屨 14
揎 14
槃 13
斫 12
旰 12
辔 12
轡 12
闳 12
閎 12
纡 12
紆 12
骧 11
驤 11
刿 11
劌 11
钜 11
鉅 11
刳 11
戢 10
箧 10
篋 10
悛 10
擿 10
俦 10
儔 10
拏 10
鹜 9
鶩 9
鉥 9
箪 9
簞 9
雠 9
讎 9
爨 9
殢 9
蠖 9
挈 9
蹐 9
昃 8
揆 8
菽 8
溷 8
飧 8
牖 8
聱 8
泗 8
飡 8
鲠 8
鯁 8
箸 8
砲 8
衾 8
枘 7
郢 7
讬 7
託 7
跖 7
挢 7
撟 7
皁 7
鸮 7
鴞 7
抟 7
摶 7
榱 7
瞽 7
厝 7
剜 7
牝 7
彘 7
彫 7
渟 7
黼 7
椟 7
櫝 7
珪 7
粝 7
糲 7
跼 7
舄 6
踔 6
啖 6
挹 6
莸 6
蕕 6
怙 6
壸 6
壺 6
衒 6
苫 6
钺 6
鉞 6
葭 6
蠙 6
穰 6
椠 6
槧 6
馀 6
餘 6
痈 6
癰 6
俟 6
詈 6
螫 6
饔 6
絜 6
陟 6
隳 6
歠 6
诎 6
詘 6
珥 5
飏 5
颺 5
樽 5
谔 5
諤 5
阗 5
闐 5
饫 5
飫 5
挦 5
撏 5
鹘 5
鶻 5
磬 5
赍 5
齎 5
櫜 5
萁 5
愆 5
绠 5
綆 5
愒 5
骖 5
驂 5
黻 5
甑 5
澹 5
僇 5
齧 5
翦 5
铩 5
鎩 5
缣 5
縑 5
醨 5
鹗 5
鶚 5
柙 4
簦 4
袴 4
餔 4
柝 4
楮 4
觚 4
筲 4
镫 4
鐙 4
殍 4
餗 4
帙 4
荻 4
溲 4
窾 4
埒 4
疐 4
缊 4
縕 4
蒹 4
埙 4
塤 4
鲇 4
鯰 4
埴 4
耨 4
鬯 4
撧 4
砻 4
礱 4
甍 4
郤 4
瞋 4
籥 4
阒 4
闃 4
衽 4
韫 4
韞 4
瞵 4
褎 4
篪 4
俛 4
胝 4
坼 4
虺 4
柢 4
掎 4
祁 4
胼 4
絫 4
喣 3
橛 3
跱 3
狎 3
攞 3
谮 3
譖 3
溘 3
昇 3
刬 3
剗 3
豨 3
蹻 3
鷇 3
虿 3
蠆 3
嵚 3
嶔 3
沤 3
漚 3
佹 3
堙 3
葑 3
蹠 3
捭 3
儋 3
瓠 3
阍 3
閽 3
秕 3
扃 3
帏 3
幃 3
郐 3
鄶 3
搴 3
剐 3
剮 3
鸷 3
鷙 3
鼷 3
镒 3
鎰 3
跗 3
剗 3
倖 3
搥 3
麇 3
陬 3
澧 3
陂 3
铗 3
鋏 3
镬 3
鑊 3
稂 3
辏 3
輳 3
跣 3
轸 3
軫 3
谠 3
讜 3
瘝 3
殣 3
彀 3
舂 3
鹪 3
鷦 3
朘 3
仞 3
抃 3
擗 3
呷 3
跅 3
莛 3
硎 3
跫 3
廋 3
皦 3
燔 3
酖 3
罴 3
羆 3
巇 3
脩 3
擐 3
燋 3
屩 3
喏 3
虮 3
蟣 3
竦 3
尻 3
埶 3
怛 3
荛 3
蕘 3
斝 3
缶 3
跂 3
跬 3
卬 3
礲 3
劚 3
窬 3
呴 3
啰 3
囉 3
騃 3
瘏 2
棰 2
祧 2
囷 2
蔀 2
徧 2
狥 2
泆 2
槊 2
鼐 2
赜 2
賾 2
倥 2
铓 2
鋩 2
荜 2
蓽 2
怱 2
殁 2
歿 2
舛 2
镕 2
鎔 2
惝 2
笏 2
寤 2
閒 2
恟 2
偪 2
橐 2
棼 2
偭 2
诪 2
譸 2
惸 2
斠 2
粜 2
糶 2
蔌 2
熯 2
愦 2
憒 2
咈 2
斨 2
巘 2
踣 2
熳 2
莩 2
輶 2
哜 2
嚌 2
闇 2
籓 2
贳 2
貰 2
穽 2
绨 2
綈 2
幾 2
躞 2
纾 2
紓 2
昬 2
睢 2
裈 2
褌 2
辇 2
輦 2
咷 2
揜 2
沄 2
弢 2
鼍 2
鼉 2
偾 2
僨 2
適 2
矻 2
洩 2
苌 2
萇 2
哙 2
噲 2
莋 2
刖 2
麞 2
睃 2
捋 2
诐 2
詖 2
鶱 2
繇 2
稊 2
纛 2
噀 2
卮 2
綮 2
謷 2
髀 2
僝 2
觌 2
覿 2
杓 2
螽 2
啛 2
镝 2
鏑 2
绁 2
紲 2
怫 2
猷 2
诜 2
詵 2
榇 2
櫬 2
伈 2
觜 2
悃 2
覈 2
徼 2
皋 2
磔 2
箓 2
籙 2
夔 2
烺 2
哓 2
嘵 2
脰 2
泮 2
甕 2
捰 2
僽 2
樯 2
檣 2
鹢 2
鷁 2
靦 2
渫 2
劬 2
溓 2
搤 2
怍 2
儗 2
轓 2
隗 2
襪 2
蓍 2
浼 2
纚 2
骀 2
駘 2
亸 2
嚲 2
轹 2
轢 2
撦 2
鴂 2
垆 2
壚 2
剉 2
尨 2
鼪 2
褱 2
麕 2
螯 2
饧 2
餳 2
睍 2
詟 2
胙 2
缧 2
縲 2
汜 2
剸 2
谇 2
誶 2
吷 2
稾 2
峣 2
嶢 2
骍 2
騂 2
黥 2
詀 2
洄 2
侭 2
酾 2
釃 2
掊 2
苴 2
訚 2
誾 2
暝 2
煨 2
劓 2
褚 2
彊 2
泓 2
眄 2
逖 2
裼 2
俾 2
醯 2
硁 2
硜 2
奂 2
奐 2
亹 2
悒 2
馘 2
穅 2
裎 2
蓼 2
薙 1
碻 1
勷 1
墐 1
濊 1
併 1
羿 1
祐 1
幪 1
楛 1
箑 1
鹨 1
鷚 1
肬 1
鬐 1
偢 1
貊 1
玠 1
餧 1
磒 1
眢 1
倸 1
痡 1
醎 1
習 1
惙 1
腘 1
湲 1
咶 1
奓 1
俜 1
鳦 1
蕫 1
纻 1
紵 1
旂 1
珎 1
禿 1
棊 1
腯 1
捲 1
颡 1
顙 1
榫 1
筌 1
嫠 1
棬 1
弸 1
罣 1
辂 1
輅 1
簋 1
摛 1
桮 1
僿 1
帡 1
墺 1
柰 1
眚 1
鬲 1
蜺 1
湔 1
、 1
侔 1
咮 1
旸 1
暘 1
憍 1
濩 1
祲 1
琚 1
磝 1
幞 1
襆 1
忳 1
褧 1
澨 1
鐀 1
媟 1
薡 1
遘 1
踧 1
暍 1
禳 1
鸲 1
鴝 1
畀 1
藋 1
剚 1
脣 1
掤 1
菹 1
舣 1
艤 1
麰 1
啭 1
囀 1
遯 1
訾 1
趼 1
碫 1
爇 1
莒 1
 1
鹯 1
鸇 1
枿 1
狝 1
獮 1
擩 1
貎 1
飖 1
颻 1
睟 1
穀 1
嫫 1
檠 1
猱 1
硗 1
磽 1
烝 1
埳 1
吰 1
狴 1
搦 1
掿 1
眇 1
愓 1
鼗 1
鞀 1
琱 1
绂 1
紱 1
畛 1
埜 1
郞 1
篙 1
诹 1
諏 1
楺 1
庀 1
欹 1
鲂 1
魴 1
媮 1
搽 1
浞 1
狷 1
堦 1
筦 1
愬 1
黾 1
黽 1
媿 1
赆 1
贐 1
黧 1
饩 1
餼 1
麽 1
麼 1
坌 1
匏 1
侜 1
悮 1
悞 1
畋 1
柁 1
碔 1
瞶 1
鲽 1
鰈 1
毳 1
丱 1
沲 1
淜 1
驩 1
圪 1
匽 1
裀 1
棁 1
梲 1
踅 1
逑 1
劻 1
媠 1
恇 1
吪 1
麹 1
屺 1
扱 1
鲋 1
鮒 1
搰 1
瘼 1
艴 1
笥 1
谫 1
譾 1
覃 1
帢 1
躭 1
愊 1
刓 1
舳 1
扞 1
鹡 1
鶺 1
冁 1
囅 1
傫 1
葸 1
鞚 1
阯 1
砆 1
垯 1
佔 1
扢 1
綈 1
踕 1
彟 1
魆 1
谿 1
鲵 1
鯢 1
襼 1
抶 1
祇 1
蓺 1
曷 1
摋 1
搡 1
傯 1
睖 1
劘 1
郄 1
跧 1
齰 1
哂 1
卲 1
墁 1
眴 1
鼯 1
傜 1
鞞 1
舻 1
艫 1
烜 1
颭 1
镴 1
鑞 1
纮 1
紘 1
遝 1
岫 1
抔 1
灞 1
澌 1
瑱 1
胾 1
祚 1
泷 1
瀧 1
湋 1
凊 1
胔 1
鲭 1
鯖 1
摽 1
搘 1
埏 1
砑 1
箦 1
簀 1
搯 1
鹓 1
鵷 1
痺 1
旄 1
婑 1
狶 1
绾 1
綰 1
乜 1
晬 1
鲐 1
鮐 1
瞢 1
綦 1
秾 1
穠 1
螗 1
噍 1
桴 1
縻 1
踆 1
桊 1
崧 1
邺 1
鄴 1
荃 1
赇 1
賕 1
痌 1
菘 1
砠 1
枵 1
惛 1
狧 1
茝 1
庥 1
汙 1
虵 1
斵 1
镪 1
鏹 1
慝 1
呿 1
馌 1
饁 1
猻 1
卻 1
芟 1
簠 1
澭 1
踬 1
躓 1
埽 1
鳷 1
掞 1
兕 1
歙 1
閧 1
窹 1
慴 1
緌 1
僪 1
殽 1
姱 1
瞚 1
胠 1
篲 1
蜎 1
赪 1
赬 1
麈 1
琯 1
嬛 1
崟 1
搠 1
阬 1
殪 1
嚬 1
醮 1
泐 1
潼 1
砉 1
鸝 1
欿 1
鸰 1
鴒 1
噫 1
珮 1
枋 1
觿 1
鞀 1
渑 1
澠 1
焯 1
蚶 1
噁 1
粃 1
搨 1
敩 1
儛 1
鼙 1
蜩 1
諠 1
崄 1
嶮 1
餬 1
鮀 1
搕 1
笫 1
迍 1
狟 1
忭 1
徂 1
蒐 1
浡 1
徬 1
笯 1
嫚 1
刈 1
逴 1
羖 1
怿 1
懌 1
阆 1
閬 1
鶗 1
踡 1
魃 1
杅 1
浉 1
獍 1
撙 1
谞 1
諝 1
旃 1
饐 1
歜 1
竽 1
抂 1
迴 1
崕 1
餽 1
纩 1
纊 1
摅 1
攄 1
羼 1
颿 1
韡 1
褵 1
祕 1
缐 1
樗 1
謭 1
蛴 1
蠐 1
忺 1
鞿 1
猧 1
憰 1
蝟 1
憝 1
钿 1
鈿 1
穠 1
隨 1
 1
鹣 1
鶼 1
垓 1
崤 1
雩 1
罍 1
冓 1
谖 1
諼 1
赀 1
貲 1
驺 1
騶 1
阽 1
庋 1
茞 1
蹀 1
箎 1
眐 1
厓 1
踖 1
夤 1
黡 1
黶 1
鼋 1
黿 1
楯 1
枥 1
櫪 1
臡 1
恠 1
诒 1
詒 1
嚚 1
採 1
偬 1
傯 1
唅 1
簟 1
抡 1
掄 1
岵 1
窆 1
劖 1
逭 1
裒 1
羝 1
餞 1
焮 1
澒 1
瘗 1
瘞 1
迒 1
僮 1
遄 1
惏 1
僄 1
邅 1
鞫 1
穉 1
澥 1
猲 1
炰 1
杕 1
翚 1
佥 1
僉 1
瑳 1
鴃 1
谹 1
掼 1
摜 1
恑 1
屙 1
瓞 1
袷 1
酲 1
貤 1
忮 1
魀 1
幙 1
腧 1
惓 1
犴 1
笄 1
棹 1
搧 1
浍 1
澮 1
貍 1
洌 1
潠 1
盱 1
攧 1
